$MeshFormat
2.2 0 8
$EndMeshFormat
$PhysicalNames
5
1 2 "bottom"
1 3 "top"
1 4 "left"
1 5 "right"
2 1 "S_inner"
$EndPhysicalNames
$Nodes
121
1 -5 -5 0
2 5 -5 0
3 5 5 0
4 -5 5 0
5 -3.999999999998771 -5 0
6 -3.000000000000872 -5 0
7 -2.000000000004083 -5 0
8 -1.000000000007256 -5 0
9 -6.163070054299169e-12 -5 0
10 0.9999999999950688 -5 0
11 1.999999999996302 -5 0
12 2.999999999997534 -5 0
13 3.999999999998767 -5 0
14 5 -3.999999999998771 0
15 5 -3.000000000000872 0
16 5 -2.000000000004083 0
17 5 -1.000000000007256 0
18 5 -6.163070054299169e-12 0
19 5 0.9999999999950688 0
20 5 1.999999999996302 0
21 5 2.999999999997534 0
22 5 3.999999999998767 0
23 3.999999999998771 5 0
24 3.000000000000872 5 0
25 2.000000000004083 5 0
26 1.000000000007256 5 0
27 6.163070054299169e-12 5 0
28 -0.9999999999950688 5 0
29 -1.999999999996302 5 0
30 -2.999999999997534 5 0
31 -3.999999999998767 5 0
32 -5 3.999999999998771 0
33 -5 3.000000000000872 0
34 -5 2.000000000004083 0
35 -5 1.000000000007256 0
36 -5 6.163070054299169e-12 0
37 -5 -0.9999999999950688 0
38 -5 -1.999999999996302 0
39 -5 -2.999999999997534 0
40 -5 -3.999999999998767 0
41 -3.99999999999877 -3.999999999998768 0
42 -3.999999999998769 -2.999999999997868 0
43 -3.999999999998769 -1.99999999999708 0
44 -3.999999999998769 -0.9999999999962874 0
45 -3.999999999998769 4.930278407755395e-12 0
46 -3.999999999998768 1.000000000006037 0
47 -3.999999999998768 2.000000000003304 0
48 -3.999999999998768 3.000000000000538 0
49 -3.999999999998768 3.999999999998771 0
50 -3.000000000000538 -3.999999999998767 0
51 -3.000000000000205 -2.999999999998201 0
52 -2.999999999999871 -1.999999999997857 0
53 -2.999999999999536 -0.999999999997506 0
54 -2.999999999999204 3.698152895026396e-12 0
55 -2.999999999998869 1.000000000004818 0
56 -2.999999999998536 2.000000000002527 0
57 -2.999999999998202 3.000000000000204 0
58 -2.999999999997869 3.999999999998771 0
59 -2.000000000003304 -3.999999999998769 0
60 -2.000000000002526 -2.999999999998536 0
61 -2.000000000001748 -1.999999999998636 0
62 -2.000000000000971 -0.9999999999987259 0
63 -2.000000000000192 2.464917159272773e-12 0
64 -1.999999999999414 1.0000000000036 0
65 -1.999999999998636 2.000000000001748 0
66 -1.999999999997858 2.999999999999871 0
67 -1.99999999999708 3.999999999998771 0
68 -1.000000000006038 -3.999999999998769 0
69 -1.000000000004819 -2.999999999998869 0
70 -1.0000000000036 -1.999999999999413 0
71 -1.000000000002382 -0.999999999999944 0
72 -1.000000000001163 1.232569601938849e-12 0
73 -0.9999999999999445 1.000000000002381 0
74 -0.999999999998725 2.000000000000971 0
75 -0.9999999999975064 2.999999999999537 0
76 -0.9999999999962876 3.99999999999877 0
77 -4.930539310164667e-12 -3.999999999998769 0
78 -3.697786521429344e-12 -2.999999999999203 0
79 -2.465561088632088e-12 -2.000000000000191 0
80 -1.232947077776166e-12 -1.000000000001163 0
81 -7.596490703563156e-24 0 0
82 1.232614010853755e-12 1.000000000001162 0
83 2.464783932505259e-12 2.000000000000192 0
84 3.697842032576462e-12 2.999999999999203 0
85 4.930456043437816e-12 3.999999999998769 0
86 0.999999999996287 -3.999999999998768 0
87 0.9999999999975057 -2.999999999999537 0
88 0.9999999999987244 -2.00000000000097 0
89 0.999999999999943 -1.000000000002381 0
90 1.000000000001162 -1.232791646543774e-12 0
91 1.000000000002381 0.9999999999999436 0
92 1.0000000000036 1.999999999999414 0
93 1.000000000004818 2.999999999998869 0
94 1.000000000006038 3.999999999998768 0
95 1.99999999999708 -3.999999999998769 0
96 1.999999999997858 -2.999999999999872 0
97 1.999999999998636 -2.000000000001747 0
98 1.999999999999414 -1.0000000000036 0
99 2.000000000000193 -2.465361248482623e-12 0
100 2.00000000000097 0.9999999999987249 0
101 2.000000000001748 1.999999999998636 0
102 2.000000000002526 2.999999999998536 0
103 2.000000000003304 3.999999999998769 0
104 2.999999999997869 -3.99999999999877 0
105 2.999999999998201 -3.000000000000205 0
106 2.999999999998535 -2.000000000002526 0
107 2.999999999998869 -1.000000000004818 0
108 2.999999999999203 -3.697930850421471e-12 0
109 2.999999999999537 0.9999999999975056 0
110 2.99999999999987 1.999999999997858 0
111 3.000000000000204 2.999999999998202 0
112 3.000000000000538 3.999999999998768 0
113 3.999999999998768 -3.999999999998771 0
114 3.999999999998769 -3.000000000000538 0
115 3.999999999998768 -2.000000000003304 0
116 3.999999999998769 -1.000000000006038 0
117 3.999999999998769 -4.930444941209089e-12 0
118 3.999999999998769 0.9999999999962874 0
119 3.999999999998769 1.99999999999708 0
120 3.999999999998771 2.999999999997868 0
121 3.999999999998771 3.999999999998767 0
$EndNodes
$Elements
140
1 1 2 2 5 1 5
2 1 2 2 5 5 6
3 1 2 2 5 6 7
4 1 2 2 5 7 8
5 1 2 2 5 8 9
6 1 2 2 5 9 10
7 1 2 2 5 10 11
8 1 2 2 5 11 12
9 1 2 2 5 12 13
10 1 2 2 5 13 2
11 1 2 5 6 2 14
12 1 2 5 6 14 15
13 1 2 5 6 15 16
14 1 2 5 6 16 17
15 1 2 5 6 17 18
16 1 2 5 6 18 19
17 1 2 5 6 19 20
18 1 2 5 6 20 21
19 1 2 5 6 21 22
20 1 2 5 6 22 3
21 1 2 3 7 3 23
22 1 2 3 7 23 24
23 1 2 3 7 24 25
24 1 2 3 7 25 26
25 1 2 3 7 26 27
26 1 2 3 7 27 28
27 1 2 3 7 28 29
28 1 2 3 7 29 30
29 1 2 3 7 30 31
30 1 2 3 7 31 4
31 1 2 4 8 4 32
32 1 2 4 8 32 33
33 1 2 4 8 33 34
34 1 2 4 8 34 35
35 1 2 4 8 35 36
36 1 2 4 8 36 37
37 1 2 4 8 37 38
38 1 2 4 8 38 39
39 1 2 4 8 39 40
40 1 2 4 8 40 1
41 3 2 1 6 1 5 41 40
42 3 2 1 6 40 41 42 39
43 3 2 1 6 39 42 43 38
44 3 2 1 6 38 43 44 37
45 3 2 1 6 37 44 45 36
46 3 2 1 6 36 45 46 35
47 3 2 1 6 35 46 47 34
48 3 2 1 6 34 47 48 33
49 3 2 1 6 33 48 49 32
50 3 2 1 6 32 49 31 4
51 3 2 1 6 5 6 50 41
52 3 2 1 6 41 50 51 42
53 3 2 1 6 42 51 52 43
54 3 2 1 6 43 52 53 44
55 3 2 1 6 44 53 54 45
56 3 2 1 6 45 54 55 46
57 3 2 1 6 46 55 56 47
58 3 2 1 6 47 56 57 48
59 3 2 1 6 48 57 58 49
60 3 2 1 6 49 58 30 31
61 3 2 1 6 6 7 59 50
62 3 2 1 6 50 59 60 51
63 3 2 1 6 51 60 61 52
64 3 2 1 6 52 61 62 53
65 3 2 1 6 53 62 63 54
66 3 2 1 6 54 63 64 55
67 3 2 1 6 55 64 65 56
68 3 2 1 6 56 65 66 57
69 3 2 1 6 57 66 67 58
70 3 2 1 6 58 67 29 30
71 3 2 1 6 7 8 68 59
72 3 2 1 6 59 68 69 60
73 3 2 1 6 60 69 70 61
74 3 2 1 6 61 70 71 62
75 3 2 1 6 62 71 72 63
76 3 2 1 6 63 72 73 64
77 3 2 1 6 64 73 74 65
78 3 2 1 6 65 74 75 66
79 3 2 1 6 66 75 76 67
80 3 2 1 6 67 76 28 29
81 3 2 1 6 8 9 77 68
82 3 2 1 6 68 77 78 69
83 3 2 1 6 69 78 79 70
84 3 2 1 6 70 79 80 71
85 3 2 1 6 71 80 81 72
86 3 2 1 6 72 81 82 73
87 3 2 1 6 73 82 83 74
88 3 2 1 6 74 83 84 75
89 3 2 1 6 75 84 85 76
90 3 2 1 6 76 85 27 28
91 3 2 1 6 9 10 86 77
92 3 2 1 6 77 86 87 78
93 3 2 1 6 78 87 88 79
94 3 2 1 6 79 88 89 80
95 3 2 1 6 80 89 90 81
96 3 2 1 6 81 90 91 82
97 3 2 1 6 82 91 92 83
98 3 2 1 6 83 92 93 84
99 3 2 1 6 84 93 94 85
100 3 2 1 6 85 94 26 27
101 3 2 1 6 10 11 95 86
102 3 2 1 6 86 95 96 87
103 3 2 1 6 87 96 97 88
104 3 2 1 6 88 97 98 89
105 3 2 1 6 89 98 99 90
106 3 2 1 6 90 99 100 91
107 3 2 1 6 91 100 101 92
108 3 2 1 6 92 101 102 93
109 3 2 1 6 93 102 103 94
110 3 2 1 6 94 103 25 26
111 3 2 1 6 11 12 104 95
112 3 2 1 6 95 104 105 96
113 3 2 1 6 96 105 106 97
114 3 2 1 6 97 106 107 98
115 3 2 1 6 98 107 108 99
116 3 2 1 6 99 108 109 100
117 3 2 1 6 100 109 110 101
118 3 2 1 6 101 110 111 102
119 3 2 1 6 102 111 112 103
120 3 2 1 6 103 112 24 25
121 3 2 1 6 12 13 113 104
122 3 2 1 6 104 113 114 105
123 3 2 1 6 105 114 115 106
124 3 2 1 6 106 115 116 107
125 3 2 1 6 107 116 117 108
126 3 2 1 6 108 117 118 109
127 3 2 1 6 109 118 119 110
128 3 2 1 6 110 119 120 111
129 3 2 1 6 111 120 121 112
130 3 2 1 6 112 121 23 24
131 3 2 1 6 13 2 14 113
132 3 2 1 6 113 14 15 114
133 3 2 1 6 114 15 16 115
134 3 2 1 6 115 16 17 116
135 3 2 1 6 116 17 18 117
136 3 2 1 6 117 18 19 118
137 3 2 1 6 118 19 20 119
138 3 2 1 6 119 20 21 120
139 3 2 1 6 120 21 22 121
140 3 2 1 6 121 22 3 23
$EndElements
