$MeshFormat
2.2 0 8
$EndMeshFormat
$PhysicalNames
9
2 1 "hot"
2 2 "cold"
2 3 "Usource"
2 4 "Udrain"
2 8 "Ugate"
3 5 "vWire1"
3 6 "vChannel"
3 7 "vWire2"
3 9 "vGate"
$EndPhysicalNames
$Nodes
60
1 0 0 0
2 0 0.001 0
3 0.001 0.001 0
4 0.001 0 0
5 0 0.001 0.0002
6 0.001 0.001 0.0002
7 0.001 0 0.0002
8 0 0 0.0002
9 0 0.001 0.00022
10 0.001 0.001 0.00022
11 0.001 0 0.00022
12 0 0 0.00022
13 0 0.001 0.00024
14 0.001 0.001 0.00024
15 0.001 0 0.00024
16 0 0 0.00024
17 0.002 0.002 0
18 0.003 0.002 0
19 0.002 0.003 0
20 0.003 0.003 0
21 0.003 0.003 5e-06
22 0.003 0.002 5e-06
23 0.002 0.002 5e-06
24 0.002 0.003 5e-06
25 0.003 0.003 1e-05
26 0.003 0.002 1e-05
27 0.002 0.002 1e-05
28 0.002 0.003 1e-05
29 0 0.001 4.000000000000001e-05
30 0 0.001 8.000000000000002e-05
31 0 0.001 0.00012
32 0 0.001 0.00016
33 0.001 0.001 4.000000000000001e-05
34 0.001 0.001 8.000000000000002e-05
35 0.001 0.001 0.00012
36 0.001 0.001 0.00016
37 0.001 0 4.000000000000001e-05
38 0.001 0 8.000000000000002e-05
39 0.001 0 0.00012
40 0.001 0 0.00016
41 0 0 4.000000000000001e-05
42 0 0 8.000000000000002e-05
43 0 0 0.00012
44 0 0 0.00016
45 0 0.001 0.000224
46 0 0.001 0.000228
47 0 0.001 0.000232
48 0 0.001 0.000236
49 0.001 0.001 0.000224
50 0.001 0.001 0.000228
51 0.001 0.001 0.000232
52 0.001 0.001 0.000236
53 0.001 0 0.000224
54 0.001 0 0.000228
55 0.001 0 0.000232
56 0.001 0 0.000236
57 0 0 0.000224
58 0 0 0.000228
59 0 0 0.000232
60 0 0 0.000236
$EndNodes
$Elements
18
1 3 2 2 6 2 3 4 1
2 3 2 3 28 5 6 7 8
3 3 2 4 50 9 10 11 12
4 3 2 1 72 13 14 15 16
5 3 2 8 100 22 23 24 21
6 5 2 5 1 4 3 2 1 37 33 29 41
7 5 2 5 1 37 33 29 41 38 34 30 42
8 5 2 5 1 38 34 30 42 39 35 31 43
9 5 2 5 1 39 35 31 43 40 36 32 44
10 5 2 5 1 40 36 32 44 7 6 5 8
11 5 2 6 2 7 6 5 8 11 10 9 12
12 5 2 7 3 11 10 9 12 53 49 45 57
13 5 2 7 3 53 49 45 57 54 50 46 58
14 5 2 7 3 54 50 46 58 55 51 47 59
15 5 2 7 3 55 51 47 59 56 52 48 60
16 5 2 7 3 56 52 48 60 15 14 13 16
17 5 2 9 4 18 20 19 17 22 21 24 23
18 5 2 9 5 22 21 24 23 26 25 28 27
$EndElements
