[Info]
Version 1
Dimension 2
NumNodes 890
Num3DElements 0
Num2DElements 827
Num1DElements 70
NumNodeBC 14
NumSaveNodes 0
NumSaveElements 0
Num 2d-line      : 70
Num 2d-line,quad : 0
Num 3d-line      : 0
Num 3d-line,quad : 0
Num triangle     : 0
Num triangle,quad: 0
Num quadr        : 827
Num quadr,quad   : 0
Num tetra        : 0
Num tetra,quad   : 0
Num brick        : 0
Num brick,quad   : 0
Num pyramid      : 0
Num pyramid,quad : 0
Num wedge        : 0
Num wedge,quad   : 0

[Nodes]
#NodeNr x-coord y-coord z-coord
       1  6.9282032302760e+00  4.0000000000000e+00  0.0000000000000e+00
       2  1.3856406460550e+01  8.0000000000000e+00  0.0000000000000e+00
       3  7.4611419402970e+00  4.3076923076920e+00  0.0000000000000e+00
       4  7.9940806503180e+00  4.6153846153850e+00  0.0000000000000e+00
       5  8.5270193603390e+00  4.9230769230770e+00  0.0000000000000e+00
       6  9.0599580703600e+00  5.2307692307690e+00  0.0000000000000e+00
       7  9.5928967803810e+00  5.5384615384620e+00  0.0000000000000e+00
       8  1.0125835490400e+01  5.8461538461540e+00  0.0000000000000e+00
       9  1.0658774200420e+01  6.1538461538460e+00  0.0000000000000e+00
      10  1.1191712910450e+01  6.4615384615380e+00  0.0000000000000e+00
      11  1.1724651620470e+01  6.7692307692310e+00  0.0000000000000e+00
      12  1.2257590330490e+01  7.0769230769230e+00  0.0000000000000e+00
      13  1.2790529040510e+01  7.3846153846150e+00  0.0000000000000e+00
      14  1.3323467750530e+01  7.6923076923080e+00  0.0000000000000e+00
      15  5.8564064605510e+00  2.1856406460550e+01  0.0000000000000e+00
      16  1.3536406460550e+01  8.5542562584220e+00  0.0000000000000e+00
      17  1.3216406460550e+01  9.1085125168440e+00  0.0000000000000e+00
      18  1.2896406460550e+01  9.6627687752660e+00  0.0000000000000e+00
      19  1.2576406460550e+01  1.0217025033690e+01  0.0000000000000e+00
      20  1.2256406460550e+01  1.0771281292110e+01  0.0000000000000e+00
      21  1.1936406460550e+01  1.1325537550530e+01  0.0000000000000e+00
      22  1.1616406460550e+01  1.1879793808950e+01  0.0000000000000e+00
      23  1.1296406460550e+01  1.2434050067380e+01  0.0000000000000e+00
      24  1.0976406460550e+01  1.2988306325800e+01  0.0000000000000e+00
      25  1.0656406460550e+01  1.3542562584220e+01  0.0000000000000e+00
      26  1.0336406460550e+01  1.4096818842640e+01  0.0000000000000e+00
      27  1.0016406460550e+01  1.4651075101060e+01  0.0000000000000e+00
      28  9.6964064605510e+00  1.5205331359490e+01  0.0000000000000e+00
      29  9.3764064605510e+00  1.5759587617910e+01  0.0000000000000e+00
      30  9.0564064605510e+00  1.6313843876330e+01  0.0000000000000e+00
      31  8.7364064605510e+00  1.6868100134750e+01  0.0000000000000e+00
      32  8.4164064605510e+00  1.7422356393170e+01  0.0000000000000e+00
      33  8.0964064605510e+00  1.7976612651600e+01  0.0000000000000e+00
      34  7.7764064605510e+00  1.8530868910020e+01  0.0000000000000e+00
      35  7.4564064605510e+00  1.9085125168440e+01  0.0000000000000e+00
      36  7.1364064605510e+00  1.9639381426860e+01  0.0000000000000e+00
      37  6.8164064605510e+00  2.0193637685280e+01  0.0000000000000e+00
      38  6.4964064605510e+00  2.0747893943710e+01  0.0000000000000e+00
      39  6.1764064605510e+00  2.1302150202130e+01  0.0000000000000e+00
      40 -8.0000000000000e+00  1.3856406460550e+01  0.0000000000000e+00
      41  5.3021502021290e+00  2.1536406460550e+01  0.0000000000000e+00
      42  4.7478939437070e+00  2.1216406460550e+01  0.0000000000000e+00
      43  4.1936376852850e+00  2.0896406460550e+01  0.0000000000000e+00
      44  3.6393814268630e+00  2.0576406460550e+01  0.0000000000000e+00
      45  3.0851251684410e+00  2.0256406460550e+01  0.0000000000000e+00
      46  2.5308689100190e+00  1.9936406460550e+01  0.0000000000000e+00
      47  1.9766126515970e+00  1.9616406460550e+01  0.0000000000000e+00
      48  1.4223563931750e+00  1.9296406460550e+01  0.0000000000000e+00
      49  8.6810013475270e-01  1.8976406460550e+01  0.0000000000000e+00
      50  3.1384387633060e-01  1.8656406460550e+01  0.0000000000000e+00
      51 -2.4041238209140e-01  1.8336406460550e+01  0.0000000000000e+00
      52 -7.9466864051350e-01  1.8016406460550e+01  0.0000000000000e+00
      53 -1.3489248989360e+00  1.7696406460550e+01  0.0000000000000e+00
      54 -1.9031811573580e+00  1.7376406460550e+01  0.0000000000000e+00
      55 -2.4574374157800e+00  1.7056406460550e+01  0.0000000000000e+00
      56 -3.0116936742020e+00  1.6736406460550e+01  0.0000000000000e+00
      57 -3.5659499326240e+00  1.6416406460550e+01  0.0000000000000e+00
      58 -4.1202061910460e+00  1.6096406460550e+01  0.0000000000000e+00
      59 -4.6744624494680e+00  1.5776406460550e+01  0.0000000000000e+00
      60 -5.2287187078900e+00  1.5456406460550e+01  0.0000000000000e+00
      61 -5.7829749663120e+00  1.5136406460550e+01  0.0000000000000e+00
      62 -6.3372312247340e+00  1.4816406460550e+01  0.0000000000000e+00
      63 -6.8914874831560e+00  1.4496406460550e+01  0.0000000000000e+00
      64 -7.4457437415780e+00  1.4176406460550e+01  0.0000000000000e+00
      65 -4.0000000000000e+00  6.9282032302760e+00  0.0000000000000e+00
      66 -7.6923076923080e+00  1.3323467750530e+01  0.0000000000000e+00
      67 -7.3846153846150e+00  1.2790529040510e+01  0.0000000000000e+00
      68 -7.0769230769230e+00  1.2257590330490e+01  0.0000000000000e+00
      69 -6.7692307692310e+00  1.1724651620470e+01  0.0000000000000e+00
      70 -6.4615384615380e+00  1.1191712910450e+01  0.0000000000000e+00
      71 -6.1538461538460e+00  1.0658774200420e+01  0.0000000000000e+00
      72 -5.8461538461540e+00  1.0125835490400e+01  0.0000000000000e+00
      73 -5.5384615384620e+00  9.5928967803810e+00  0.0000000000000e+00
      74 -5.2307692307690e+00  9.0599580703600e+00  0.0000000000000e+00
      75 -4.9230769230770e+00  8.5270193603390e+00  0.0000000000000e+00
      76 -4.6153846153850e+00  7.9940806503180e+00  0.0000000000000e+00
      77 -4.3076923076920e+00  7.4611419402970e+00  0.0000000000000e+00
      78  6.5930095088230e+00  4.5312498956210e+00  0.0000000000000e+00
      79  6.2171676913060e+00  5.0345631288310e+00  0.0000000000000e+00
      80  5.8029949675170e+00  5.5068366061630e+00  0.0000000000000e+00
      81  5.3530448500270e+00  5.9451586045790e+00  0.0000000000000e+00
      82  4.8700914309390e+00  6.3468267231970e+00  0.0000000000000e+00
      83  4.3571122786820e+00  6.7093645444970e+00  0.0000000000000e+00
      84  3.8172700803150e+00  7.0305369022520e+00  0.0000000000000e+00
      85  3.2538931425100e+00  7.3083636620740e+00  0.0000000000000e+00
      86  2.6704548714340e+00  7.5411319296000e+00  0.0000000000000e+00
      87  2.0705523580190e+00  7.7274066110630e+00  0.0000000000000e+00
      88  1.4578842008010e+00  7.8660392610930e+00  0.0000000000000e+00
      89  8.3622770268080e-01  7.9561751633100e+00  0.0000000000000e+00
      90  2.0941558269480e-01  7.9972585999030e+00  0.0000000000000e+00
      91 -4.1868765399740e-01  7.9890362778240e+00  0.0000000000000e+00
      92 -1.0442095420730e+00  7.9315588904230e+00  0.0000000000000e+00
      93 -1.6632935310800e+00  7.8251808049060e+00  0.0000000000000e+00
      94 -2.2721227623580e+00  7.6705578775460e+00  0.0000000000000e+00
      95 -2.8669436012340e+00  7.4686434101070e+00  0.0000000000000e+00
      96 -3.4440887794340e+00  7.2206822724300e+00  0.0000000000000e+00
      97  5.4568420619840e+00  1.2952199639250e+01  0.0000000000000e+00
      98 -1.6516850484820e-01  1.2765895759200e+01  0.0000000000000e+00
      99  4.4270026397550e+00  1.2421069086980e+01  0.0000000000000e+00
     100  3.4781672174550e+00  1.3397304216800e+01  0.0000000000000e+00
     101  2.5155079655000e+00  1.2492765731490e+01  0.0000000000000e+00
     102  5.3468800769550e+00  1.2381420774610e+01  0.0000000000000e+00
     103  2.5222433928330e+00  1.3274947583130e+01  0.0000000000000e+00
     104  3.4786063666480e+00  1.2523161440220e+01  0.0000000000000e+00
     105  1.5637732543840e+00  1.2426846778980e+01  0.0000000000000e+00
     106  1.6018196356380e+00  1.3152833239990e+01  0.0000000000000e+00
     107  6.7373381020820e-01  1.2327109781070e+01  0.0000000000000e+00
     108 -1.6291931989940e-01  1.2177692127000e+01  0.0000000000000e+00
     109  6.3890945754510e+00  1.0509275714680e+01  0.0000000000000e+00
     110  5.5897819919950e+00  1.1308459821660e+01  0.0000000000000e+00
     111  4.3805267903890e+00  1.1529711486960e+01  0.0000000000000e+00
     112  3.3343257006770e+00  1.1679596284460e+01  0.0000000000000e+00
     113  2.3984301119970e+00  1.1725464021110e+01  0.0000000000000e+00
     114  1.4536203811270e+00  1.1698462635730e+01  0.0000000000000e+00
     115  5.3998402746100e-01  1.1632059598640e+01  0.0000000000000e+00
     116  4.4780799851880e+00  1.3514358510770e+01  0.0000000000000e+00
     117  4.1181626400230e+00  1.4624638986360e+01  0.0000000000000e+00
     118  3.2840234234710e+00  1.4228501670600e+01  0.0000000000000e+00
     119  2.4324682149320e+00  1.4031839906350e+01  0.0000000000000e+00
     120  1.6058138596100e+00  1.3870911112300e+01  0.0000000000000e+00
     121  6.7350128376600e-01  1.3058131585480e+01  0.0000000000000e+00
     122  3.1216818540970e-02  1.3484168892550e+01  0.0000000000000e+00
     123 -8.4752648122580e-01  1.2633801474180e+01  0.0000000000000e+00
     124 -9.5472339687830e-01  1.2117211815360e+01  0.0000000000000e+00
     125  7.0653972986640e+00  9.8051225814350e+00  0.0000000000000e+00
     126 -3.6051028703070e-01  1.1528193128080e+01  0.0000000000000e+00
     127  5.6963693920060e+00  1.3593200557410e+01  0.0000000000000e+00
     128  5.3183218950650e+00  1.4063308978640e+01  0.0000000000000e+00
     129  5.0421853391400e+00  1.5312458240900e+01  0.0000000000000e+00
     130  4.3738995423880e+00  1.6482363368620e+01  0.0000000000000e+00
     131  4.4111706671990e+00  1.5475541216700e+01  0.0000000000000e+00
     132  3.4733912640790e+00  1.5391000595650e+01  0.0000000000000e+00
     133  2.8941102203370e+00  1.5034227067570e+01  0.0000000000000e+00
     134  2.2160036545710e+00  1.4773072973570e+01  0.0000000000000e+00
     135  1.5161695833710e+00  1.4595539568290e+01  0.0000000000000e+00
     136  8.0886094387070e-01  1.3771485985660e+01  0.0000000000000e+00
     137  3.8957991093010e-01  1.3835552056930e+01  0.0000000000000e+00
     138 -4.4954278799210e-01  1.3276414026370e+01  0.0000000000000e+00
     139 -1.0107597385840e+00  1.3094519174580e+01  0.0000000000000e+00
     140 -1.5709950297360e+00  1.2828617540830e+01  0.0000000000000e+00
     141 -2.0409070981630e+00  1.2456008611680e+01  0.0000000000000e+00
     142 -1.5978586478120e+00  1.2163532259350e+01  0.0000000000000e+00
     143 -1.2025245586520e+00  1.1513525883900e+01  0.0000000000000e+00
     144  7.6230789648500e+00  9.1074587146460e+00  0.0000000000000e+00
     145  5.0884207332070e+00  1.4688474833770e+01  0.0000000000000e+00
     146  5.1094568006280e+00  1.5861998703790e+01  0.0000000000000e+00
     147  4.7562155182340e+00  1.6151804851740e+01  0.0000000000000e+00
     148  4.0331941286520e+00  1.6998099271950e+01  0.0000000000000e+00
     149  3.8863644850810e+00  1.5976127233340e+01  0.0000000000000e+00
     150  3.0240126226680e+00  1.6132110751040e+01  0.0000000000000e+00
     151  1.9013802421710e+00  1.5513429126450e+01  0.0000000000000e+00
     152  8.7809286231740e-01  1.4461889978350e+01  0.0000000000000e+00
     153  2.5226384873750e-01  1.4298564142320e+01  0.0000000000000e+00
     154 -2.6654945803230e-01  1.4048293022280e+01  0.0000000000000e+00
     155 -7.6290049134150e-01  1.3789840729520e+01  0.0000000000000e+00
     156 -1.2967433752670e+00  1.3533973482290e+01  0.0000000000000e+00
     157 -1.8393497741610e+00  1.3237144024400e+01  0.0000000000000e+00
     158 -2.3402250941750e+00  1.2848796901840e+01  0.0000000000000e+00
     159 -2.8325391534130e+00  1.2519688373410e+01  0.0000000000000e+00
     160 -2.4230625723960e+00  1.2057353652420e+01  0.0000000000000e+00
     161 -1.8963351832740e+00  1.1687256356040e+01  0.0000000000000e+00
     162  8.4467149142560e+00  9.5526884545780e+00  0.0000000000000e+00
     163  9.4158631727250e+00  9.2938212466180e+00  0.0000000000000e+00
     164  9.9085218235540e+00  9.1645306646340e+00  0.0000000000000e+00
     165  7.7893110714170e+00  1.0308743843680e+01  0.0000000000000e+00
     166  7.1719874896080e+00  1.1003620711230e+01  0.0000000000000e+00
     167  6.7141459896810e+00  1.1713211516320e+01  0.0000000000000e+00
     168  6.5208341045930e+00  1.2405995054380e+01  0.0000000000000e+00
     169  6.4521420104930e+00  1.3090331624330e+01  0.0000000000000e+00
     170  6.4864004804810e+00  1.3733802510780e+01  0.0000000000000e+00
     171  6.1382350314150e+00  1.4343811657180e+01  0.0000000000000e+00
     172  5.9137488400140e+00  1.4930244009000e+01  0.0000000000000e+00
     173  5.7551875664930e+00  1.5462584610000e+01  0.0000000000000e+00
     174  5.5694849909230e+00  1.6006104197530e+01  0.0000000000000e+00
     175  5.2647537519150e+00  1.6501907215770e+01  0.0000000000000e+00
     176  4.9024630254300e+00  1.6938301809890e+01  0.0000000000000e+00
     177  4.5690746273710e+00  1.7415888621340e+01  0.0000000000000e+00
     178  3.5252450769990e+00  1.6558734922790e+01  0.0000000000000e+00
     179  2.4735178474820e+00  1.5813574242470e+01  0.0000000000000e+00
     180  1.2890132001380e+00  1.5282395371440e+01  0.0000000000000e+00
     181  6.7037953006120e-01  1.5067078169020e+01  0.0000000000000e+00
     182  6.5417055918330e-02  1.4820498590860e+01  0.0000000000000e+00
     183 -4.9887124166470e-01  1.4572431311630e+01  0.0000000000000e+00
     184 -1.0419447106280e+00  1.4288143265730e+01  0.0000000000000e+00
     185 -1.5800244994420e+00  1.3995715284410e+01  0.0000000000000e+00
     186 -2.1176842575390e+00  1.3680875127960e+01  0.0000000000000e+00
     187 -2.6454358134680e+00  1.3357048361670e+01  0.0000000000000e+00
     188 -3.1589375829640e+00  1.3011120566610e+01  0.0000000000000e+00
     189 -3.6781273595850e+00  1.2689673373890e+01  0.0000000000000e+00
     190 -3.3078097162160e+00  1.2168129675840e+01  0.0000000000000e+00
     191 -2.8679561900100e+00  1.1676768821650e+01  0.0000000000000e+00
     192 -2.3120955649830e+00  1.1229468868000e+01  0.0000000000000e+00
     193  6.8528053722900e+00  7.4794621264300e+00  0.0000000000000e+00
     194  5.7884352840750e+00  8.6112504588450e+00  0.0000000000000e+00
     195  5.1488780989470e+00  9.1225678054880e+00  0.0000000000000e+00
     196  4.4791379549270e+00  9.5761924748110e+00  0.0000000000000e+00
     197  3.7149121657190e+00  9.8903522345790e+00  0.0000000000000e+00
     198  2.8859182967040e+00  1.0090467500850e+01  0.0000000000000e+00
     199  2.0307861369100e+00  1.0208726940440e+01  0.0000000000000e+00
     200  1.1744525691850e+00  1.0258791802790e+01  0.0000000000000e+00
     201  3.0838069320530e-01  1.0259842614180e+01  0.0000000000000e+00
     202 -5.8539529300720e-01  1.0210182241020e+01  0.0000000000000e+00
     203 -1.4833793637830e+00  1.0097980265440e+01  0.0000000000000e+00
     204 -2.2206998201610e+00  9.8077817679100e+00  0.0000000000000e+00
     205  7.3138026958400e+00  6.8564987815970e+00  0.0000000000000e+00
     206  6.3530577149900e+00  8.0565671726930e+00  0.0000000000000e+00
     207  7.8596642432390e+00  7.2565573469570e+00  0.0000000000000e+00
     208  8.4434620346760e+00  7.5777221163040e+00  0.0000000000000e+00
     209  9.0096893838770e+00  7.8465583428530e+00  0.0000000000000e+00
     210  9.6270752292340e+00  8.0216029062630e+00  0.0000000000000e+00
     211  1.0236414162360e+01  8.2024798055560e+00  0.0000000000000e+00
     212  1.1329927669660e+01  8.7731647996140e+00  0.0000000000000e+00
     213  1.1013275195130e+01  9.3363097224620e+00  0.0000000000000e+00
     214  1.0614836406860e+01  9.8634263259360e+00  0.0000000000000e+00
     215  1.0137509188760e+01  1.0328644605130e+01  0.0000000000000e+00
     216  9.6655832955470e+00  1.0799813792740e+01  0.0000000000000e+00
     217  9.2295364676130e+00  1.1306923472160e+01  0.0000000000000e+00
     218  8.9055936993720e+00  1.1885469085630e+01  0.0000000000000e+00
     219  8.6172690563190e+00  1.2482720370520e+01  0.0000000000000e+00
     220  8.3651711749220e+00  1.3094136610470e+01  0.0000000000000e+00
     221  8.0806855724330e+00  1.3678825593310e+01  0.0000000000000e+00
     222  7.8896010650340e+00  1.4303826467320e+01  0.0000000000000e+00
     223  7.5801858587920e+00  1.4869142577220e+01  0.0000000000000e+00
     224  7.2824034111830e+00  1.5437038336970e+01  0.0000000000000e+00
     225  6.9574979314410e+00  1.5989065985860e+01  0.0000000000000e+00
     226  6.6343510263070e+00  1.6536619080040e+01  0.0000000000000e+00
     227  6.3174836356090e+00  1.7078430876400e+01  0.0000000000000e+00
     228  6.0259699109220e+00  1.7610266521570e+01  0.0000000000000e+00
     229  5.7055914506780e+00  1.8130835387030e+01  0.0000000000000e+00
     230  5.3985874617350e+00  1.8666027614600e+01  0.0000000000000e+00
     231  5.0914400418400e+00  1.9207561813470e+01  0.0000000000000e+00
     232  4.5258673827390e+00  1.8870330915450e+01  0.0000000000000e+00
     233  3.9653502203070e+00  1.8526510489290e+01  0.0000000000000e+00
     234  3.4189325190000e+00  1.8167921535530e+01  0.0000000000000e+00
     235  2.8791257078120e+00  1.7815268322790e+01  0.0000000000000e+00
     236  2.3406237985090e+00  1.7472641571340e+01  0.0000000000000e+00
     237  1.7780207480150e+00  1.7179512903730e+01  0.0000000000000e+00
     238  1.2173791690730e+00  1.6866383470630e+01  0.0000000000000e+00
     239  6.5899195285860e-01  1.6556981871690e+01  0.0000000000000e+00
     240  9.6979057188970e-02  1.6242689528980e+01  0.0000000000000e+00
     241 -4.6366441489730e-01  1.5945727517610e+01  0.0000000000000e+00
     242 -1.0265022384510e+00  1.5640160590930e+01  0.0000000000000e+00
     243 -1.5842763163300e+00  1.5331463637240e+01  0.0000000000000e+00
     244 -2.1352391101010e+00  1.5022106577510e+01  0.0000000000000e+00
     245 -2.6852353525130e+00  1.4709077489980e+01  0.0000000000000e+00
     246 -3.2294129089340e+00  1.4393424917090e+01  0.0000000000000e+00
     247 -3.7695861546630e+00  1.4077479030070e+01  0.0000000000000e+00
     248 -4.3121458654260e+00  1.3764342482360e+01  0.0000000000000e+00
     249 -4.8546045160370e+00  1.3448293561150e+01  0.0000000000000e+00
     250 -5.4062322528760e+00  1.3142382390730e+01  0.0000000000000e+00
     251 -5.0880738990120e+00  1.2591123333110e+01  0.0000000000000e+00
     252 -4.7548061574960e+00  1.2050450543340e+01  0.0000000000000e+00
     253 -4.3821379694140e+00  1.1522560520690e+01  0.0000000000000e+00
     254 -3.9896819335200e+00  1.1009860910540e+01  0.0000000000000e+00
     255 -3.5852036680220e+00  1.0516563111310e+01  0.0000000000000e+00
     256 -3.2244557173280e+00  1.0016188866850e+01  0.0000000000000e+00
     257 -2.9425665432640e+00  9.4810688154800e+00  0.0000000000000e+00
     258  6.7874764089560e+00  6.4221381814780e+00  0.0000000000000e+00
     259  6.3215003561230e+00  6.9740199245460e+00  0.0000000000000e+00
     260  5.8045926152190e+00  7.4831140970130e+00  0.0000000000000e+00
     261  5.2496896893150e+00  7.9707735512350e+00  0.0000000000000e+00
     262  4.6324514804120e+00  8.3949084868090e+00  0.0000000000000e+00
     263  4.0185819979500e+00  8.7948735404790e+00  0.0000000000000e+00
     264  3.3365856408430e+00  9.0843423523290e+00  0.0000000000000e+00
     265  2.5966691412460e+00  9.2996684575280e+00  0.0000000000000e+00
     266  1.8001871120650e+00  9.4521272741820e+00  0.0000000000000e+00
     267  1.0205970365250e+00  9.5358911023630e+00  0.0000000000000e+00
     268  2.2698037272830e-01  9.5722430994760e+00  0.0000000000000e+00
     269 -5.4588077290040e-01  9.5352130671730e+00  0.0000000000000e+00
     270 -1.2875519363630e+00  9.3869115298790e+00  0.0000000000000e+00
     271 -1.9955048024280e+00  9.1649703382290e+00  0.0000000000000e+00
     272 -2.6984517720070e+00  8.9050373497790e+00  0.0000000000000e+00
     273  7.2223825793290e+00  5.8374708031460e+00  0.0000000000000e+00
     274  7.7435549383530e+00  6.2088216997640e+00  0.0000000000000e+00
     275  8.2808252765690e+00  6.5584079619850e+00  0.0000000000000e+00
     276  8.8291666198800e+00  6.8704604899880e+00  0.0000000000000e+00
     277  9.3831819116730e+00  7.1475986236540e+00  0.0000000000000e+00
     278  9.9538970628990e+00  7.3896151914340e+00  0.0000000000000e+00
     279  1.0532774274060e+01  7.6396613847940e+00  0.0000000000000e+00
     280  1.1094849317810e+01  7.9258639877640e+00  0.0000000000000e+00
     281  1.1626275157680e+01  8.2110945910190e+00  0.0000000000000e+00
     282  1.2156551483700e+01  8.5094083535860e+00  0.0000000000000e+00
     283  1.1838847130330e+01  9.0793966170000e+00  0.0000000000000e+00
     284  1.1497119896590e+01  9.6507645286640e+00  0.0000000000000e+00
     285  1.1142542850140e+01  1.0200852756240e+01  0.0000000000000e+00
     286  1.0729737487210e+01  1.0701851143060e+01  0.0000000000000e+00
     287  1.0338642784810e+01  1.1210681996660e+01  0.0000000000000e+00
     288  9.9772622298300e+00  1.1741327472540e+01  0.0000000000000e+00
     289  9.6865755821000e+00  1.2303690158890e+01  0.0000000000000e+00
     290  9.3844713076450e+00  1.2869202485480e+01  0.0000000000000e+00
     291  9.0708721611860e+00  1.3425353123620e+01  0.0000000000000e+00
     292  8.7982402073190e+00  1.4019974247070e+01  0.0000000000000e+00
     293  8.4946526985380e+00  1.4600226734440e+01  0.0000000000000e+00
     294  8.1808872582260e+00  1.5162008902720e+01  0.0000000000000e+00
     295  7.8596640412270e+00  1.5717916116380e+01  0.0000000000000e+00
     296  7.5385182549530e+00  1.6272529634140e+01  0.0000000000000e+00
     297  7.2266874842990e+00  1.6826523771830e+01  0.0000000000000e+00
     298  6.9152393200140e+00  1.7373231196140e+01  0.0000000000000e+00
     299  6.6015115972990e+00  1.7917741699520e+01  0.0000000000000e+00
     300  6.2856508803050e+00  1.8458347944540e+01  0.0000000000000e+00
     301  5.9710892226440e+00  1.8993874579760e+01  0.0000000000000e+00
     302  5.6670889242090e+00  1.9542335142910e+01  0.0000000000000e+00
     303  5.3644547886320e+00  2.0095120817260e+01  0.0000000000000e+00
     304  4.7974595116580e+00  1.9765265845560e+01  0.0000000000000e+00
     305  4.2288934316930e+00  1.9432529616660e+01  0.0000000000000e+00
     306  3.6733554648140e+00  1.9104313858630e+01  0.0000000000000e+00
     307  3.1238273992100e+00  1.8762521071030e+01  0.0000000000000e+00
     308  2.5775336400940e+00  1.8428981337970e+01  0.0000000000000e+00
     309  2.0304427188600e+00  1.8097914291040e+01  0.0000000000000e+00
     310  1.4738000454180e+00  1.7787335226910e+01  0.0000000000000e+00
     311  9.1683944090690e-01  1.7467520193470e+01  0.0000000000000e+00
     312  3.5982321820400e-01  1.7148181838380e+01  0.0000000000000e+00
     313 -1.9760040085800e-01  1.6829990440580e+01  0.0000000000000e+00
     314 -7.5570087739060e-01  1.6512255959690e+01  0.0000000000000e+00
     315 -1.3126650076710e+00  1.6193718000850e+01  0.0000000000000e+00
     316 -1.8666050475840e+00  1.5883278850300e+01  0.0000000000000e+00
     317 -2.4192015402450e+00  1.5567004895450e+01  0.0000000000000e+00
     318 -2.9701041704520e+00  1.5251339704100e+01  0.0000000000000e+00
     319 -3.5222328013080e+00  1.4946982628070e+01  0.0000000000000e+00
     320 -4.0692430560090e+00  1.4630014456080e+01  0.0000000000000e+00
     321 -4.6179145634280e+00  1.4322046306980e+01  0.0000000000000e+00
     322 -5.1656057058190e+00  1.4010006355380e+01  0.0000000000000e+00
     323 -5.7159735222340e+00  1.3699446833340e+01  0.0000000000000e+00
     324 -6.2691056626170e+00  1.3392719353750e+01  0.0000000000000e+00
     325 -5.9593407276550e+00  1.2839403241230e+01  0.0000000000000e+00
     326 -5.6411232118370e+00  1.2298633804870e+01  0.0000000000000e+00
     327 -5.3125051870900e+00  1.1757582012010e+01  0.0000000000000e+00
     328 -4.9657386416240e+00  1.1226536448760e+01  0.0000000000000e+00
     329 -4.6121317859270e+00  1.0705917530930e+01  0.0000000000000e+00
     330 -4.2562352221340e+00  1.0196746415850e+01  0.0000000000000e+00
     331 -3.9218846961200e+00  9.6871838669720e+00  0.0000000000000e+00
     332 -3.6269856919120e+00  9.1616863341340e+00  0.0000000000000e+00
     333 -3.3631674254260e+00  8.6164654187880e+00  0.0000000000000e+00
     334  6.7182111984000e+00  5.4365281690790e+00  0.0000000000000e+00
     335  6.2882872806360e+00  5.9664698434870e+00  0.0000000000000e+00
     336  5.8143318454290e+00  6.4524521259100e+00  0.0000000000000e+00
     337  5.3189683046420e+00  6.9200866463280e+00  0.0000000000000e+00
     338  4.7831223366950e+00  7.3297697126700e+00  0.0000000000000e+00
     339  4.2133006345190e+00  7.6971612707320e+00  0.0000000000000e+00
     340  3.6038938691400e+00  8.0040497209660e+00  0.0000000000000e+00
     341  2.9704609719240e+00  8.2815555340830e+00  0.0000000000000e+00
     342  2.3083812285790e+00  8.5042387039970e+00  0.0000000000000e+00
     343  1.6300063485810e+00  8.6714416696780e+00  0.0000000000000e+00
     344  9.2625803205610e-01  8.7627821867410e+00  0.0000000000000e+00
     345  2.2764967646240e-01  8.7970916968600e+00  0.0000000000000e+00
     346 -4.6669847050620e-01  8.7681901827140e+00  0.0000000000000e+00
     347 -1.1470992143270e+00  8.6648659774810e+00  0.0000000000000e+00
     348 -1.8134331713840e+00  8.5062465833140e+00  0.0000000000000e+00
     349 -2.4676424612370e+00  8.2967453397330e+00  0.0000000000000e+00
     350 -3.1078184664780e+00  8.0497196350450e+00  0.0000000000000e+00
     351  7.1102374615600e+00  4.8879534901320e+00  0.0000000000000e+00
     352  7.6270797558850e+00  5.2326726548070e+00  0.0000000000000e+00
     353  8.1486334966040e+00  5.5665243443260e+00  0.0000000000000e+00
     354  8.6815967715450e+00  5.8877655044420e+00  0.0000000000000e+00
     355  9.2115733169690e+00  6.1967597320480e+00  0.0000000000000e+00
     356  9.7587541442250e+00  6.4840850300070e+00  0.0000000000000e+00
     357  1.0305735787020e+01  6.7675792127640e+00  0.0000000000000e+00
     358  1.0856983349160e+01  7.0523155859820e+00  0.0000000000000e+00
     359  1.1403342177970e+01  7.3431100616600e+00  0.0000000000000e+00
     360  1.1935446556900e+01  7.6441496130780e+00  0.0000000000000e+00
     361  1.2470479656610e+01  7.9458703095900e+00  0.0000000000000e+00
     362  1.3001150868010e+01  8.2497443123500e+00  0.0000000000000e+00
     363  1.2680926526250e+01  8.8108401145230e+00  0.0000000000000e+00
     364  1.2358407050270e+01  9.3740652109510e+00  0.0000000000000e+00
     365  1.2028773952480e+01  9.9370852013530e+00  0.0000000000000e+00
     366  1.1689108603170e+01  1.0488681318840e+01  0.0000000000000e+00
     367  1.1329794077390e+01  1.1026842310500e+01  0.0000000000000e+00
     368  1.0985574138130e+01  1.1559190872530e+01  0.0000000000000e+00
     369  1.0685140442970e+01  1.2116468785340e+01  0.0000000000000e+00
     370  1.0382632191460e+01  1.2682371140870e+01  0.0000000000000e+00
     371  1.0058492168780e+01  1.3235346002670e+01  0.0000000000000e+00
     372  9.7360429439000e+00  1.3789484003570e+01  0.0000000000000e+00
     373  9.4149447580920e+00  1.4344447013510e+01  0.0000000000000e+00
     374  9.0946726049980e+00  1.4899845193050e+01  0.0000000000000e+00
     375  8.7747000042960e+00  1.5455317739830e+01  0.0000000000000e+00
     376  8.4547085219410e+00  1.6010588555340e+01  0.0000000000000e+00
     377  8.1347084607690e+00  1.6565433108080e+01  0.0000000000000e+00
     378  7.8146601204730e+00  1.7119632443190e+01  0.0000000000000e+00
     379  7.5042252467020e+00  1.7674578636820e+01  0.0000000000000e+00
     380  7.1875660776650e+00  1.8224378237910e+01  0.0000000000000e+00
     381  6.8717688493750e+00  1.8773095529110e+01  0.0000000000000e+00
     382  6.5515523021420e+00  1.9319851104450e+01  0.0000000000000e+00
     383  6.2437823674730e+00  1.9866440956520e+01  0.0000000000000e+00
     384  5.9347624415550e+00  2.0422007202520e+01  0.0000000000000e+00
     385  5.6180040910140e+00  2.0977690327830e+01  0.0000000000000e+00
     386  5.0574321204900e+00  2.0649823719120e+01  0.0000000000000e+00
     387  4.4971183916880e+00  2.0321255027420e+01  0.0000000000000e+00
     388  3.9375363671970e+00  2.0002403637870e+01  0.0000000000000e+00
     389  3.3819844943850e+00  1.9677633010340e+01  0.0000000000000e+00
     390  2.8291529427050e+00  1.9350783072330e+01  0.0000000000000e+00
     391  2.2784966944620e+00  1.9026602581570e+01  0.0000000000000e+00
     392  1.7302277494680e+00  1.8705119156240e+01  0.0000000000000e+00
     393  1.1754691321080e+00  1.8382169284250e+01  0.0000000000000e+00
     394  6.2030019080120e-01  1.8060437328270e+01  0.0000000000000e+00
     395  6.4942267759000e-02  1.7739682984570e+01  0.0000000000000e+00
     396 -4.9038731504900e-01  1.7419591868980e+01  0.0000000000000e+00
     397 -1.0504660539980e+00  1.7104894016100e+01  0.0000000000000e+00
     398 -1.6061081216450e+00  1.6785609438900e+01  0.0000000000000e+00
     399 -2.1609701971120e+00  1.6465842228850e+01  0.0000000000000e+00
     400 -2.7149733296410e+00  1.6145945422990e+01  0.0000000000000e+00
     401 -3.2685679253140e+00  1.5834195544570e+01  0.0000000000000e+00
     402 -3.8209852330570e+00  1.5516165171940e+01  0.0000000000000e+00
     403 -4.3728025664870e+00  1.5198346081280e+01  0.0000000000000e+00
     404 -4.9236679178930e+00  1.4886486413130e+01  0.0000000000000e+00
     405 -5.4745654769700e+00  1.4570693741700e+01  0.0000000000000e+00
     406 -6.0239497370150e+00  1.4252344203280e+01  0.0000000000000e+00
     407 -6.5774756326940e+00  1.3944654170480e+01  0.0000000000000e+00
     408 -7.1338427093560e+00  1.3635822288710e+01  0.0000000000000e+00
     409 -6.8211774221320e+00  1.3091441130120e+01  0.0000000000000e+00
     410 -6.5163172991260e+00  1.2550437617530e+01  0.0000000000000e+00
     411 -6.2055681404620e+00  1.2008039073760e+01  0.0000000000000e+00
     412 -5.8904827668160e+00  1.1470002681530e+01  0.0000000000000e+00
     413 -5.5608227899630e+00  1.0938593729820e+01  0.0000000000000e+00
     414 -5.2331872361960e+00  1.0410888265950e+01  0.0000000000000e+00
     415 -4.9054783799000e+00  9.8891473922070e+00  0.0000000000000e+00
     416 -4.5865923435750e+00  9.3697311703710e+00  0.0000000000000e+00
     417 -4.2850988977060e+00  8.8453653120360e+00  0.0000000000000e+00
     418 -3.7191831233500e+00  7.7709364762590e+00  0.0000000000000e+00
     419 -3.9974356919930e+00  8.3133105583960e+00  0.0000000000000e+00
     420  1.0797926547190e+01  8.4937501656220e+00  0.0000000000000e+00
     421 -2.4835887551660e+00  1.0372115494720e+01  0.0000000000000e+00
     422 -2.9074695766400e+00  1.0849231148830e+01  0.0000000000000e+00
     423 -3.3945997122440e+00  1.1328718044410e+01  0.0000000000000e+00
     424 -3.8257756492020e+00  1.1834564324330e+01  0.0000000000000e+00
     425 -4.2035638422600e+00  1.2360490934460e+01  0.0000000000000e+00
     426 -4.5414762725420e+00  1.2903178032330e+01  0.0000000000000e+00
     427 -4.0031525398820e+00  1.3220764508800e+01  0.0000000000000e+00
     428 -3.4714997525850e+00  1.3542476513150e+01  0.0000000000000e+00
     429 -2.9407458053450e+00  1.3867230537200e+01  0.0000000000000e+00
     430 -2.3983524042420e+00  1.4167155625330e+01  0.0000000000000e+00
     431 -1.8536112824450e+00  1.4475229091040e+01  0.0000000000000e+00
     432 -1.3026881160190e+00  1.4781111272470e+01  0.0000000000000e+00
     433 -7.4738513769570e-01  1.5083696405660e+01  0.0000000000000e+00
     434 -1.8357095158860e-01  1.5376036279620e+01  0.0000000000000e+00
     435  3.9600251921920e-01  1.5659505379730e+01  0.0000000000000e+00
     436  9.7946211909830e-01  1.5932361906780e+01  0.0000000000000e+00
     437  1.5433318687620e+00  1.6227152489620e+01  0.0000000000000e+00
     438  2.1094751474180e+00  1.6520030975550e+01  0.0000000000000e+00
     439  2.6636655585240e+00  1.6827111837700e+01  0.0000000000000e+00
     440  3.1931787777810e+00  1.7182573963030e+01  0.0000000000000e+00
     441  3.7160327174930e+00  1.7580318769630e+01  0.0000000000000e+00
     442  4.2573851935640e+00  1.7955619588760e+01  0.0000000000000e+00
     443  4.8237008172470e+00  1.8318787953690e+01  0.0000000000000e+00
     444  5.1351294398080e+00  1.7794006982830e+01  0.0000000000000e+00
     445  5.4602156935980e+00  1.7293515216920e+01  0.0000000000000e+00
     446  5.7881239899400e+00  1.6784117267160e+01  0.0000000000000e+00
     447  6.1016146795450e+00  1.6258730066600e+01  0.0000000000000e+00
     448  6.3783711208010e+00  1.5708641541110e+01  0.0000000000000e+00
     449  6.6465545351620e+00  1.5159667521270e+01  0.0000000000000e+00
     450  6.8834788638360e+00  1.4580314385830e+01  0.0000000000000e+00
     451  7.1522112102250e+00  1.3990132733260e+01  0.0000000000000e+00
     452  7.3584726314370e+00  1.3368370015940e+01  0.0000000000000e+00
     453  7.5489578491050e+00  1.2760672830740e+01  0.0000000000000e+00
     454  7.7608026878830e+00  1.2113526363280e+01  0.0000000000000e+00
     455  8.0481181080420e+00  1.1438070465940e+01  0.0000000000000e+00
     456  8.4804808326070e+00  1.0802274611360e+01  0.0000000000000e+00
     457  9.0096689856880e+00  1.0273484946550e+01  0.0000000000000e+00
     458  9.5995833061880e+00  9.8915750822560e+00  0.0000000000000e+00
     459  1.0221995995230e+01  9.4980446858370e+00  0.0000000000000e+00
     460  1.0551419908310e+01  9.0037990196630e+00  0.0000000000000e+00
     461  1.0036362444040e+01  8.7156368002780e+00  0.0000000000000e+00
     462  9.3408894930320e+00  8.6820679929660e+00  0.0000000000000e+00
     463  8.7047777123510e+00  8.6157311866530e+00  0.0000000000000e+00
     464  6.9499648543190e+00  8.6060732555550e+00  0.0000000000000e+00
     465  8.0426411484030e+00  8.3656346837940e+00  0.0000000000000e+00
     466  7.4296188422090e+00  7.9430177136940e+00  0.0000000000000e+00
     467 -1.5746083065390e+00  1.0803475502060e+01  0.0000000000000e+00
     468 -5.4316446409420e-01  1.0875316848480e+01  0.0000000000000e+00
     469  4.0125440496110e-01  1.0948729479500e+01  0.0000000000000e+00
     470  1.3060649206730e+00  1.0976903204360e+01  0.0000000000000e+00
     471  2.2327922875290e+00  1.0964637599760e+01  0.0000000000000e+00
     472  3.1631297270720e+00  1.0875936402990e+01  0.0000000000000e+00
     473  4.1253929806970e+00  1.0704759451870e+01  0.0000000000000e+00
     474  4.9991269406940e+00  1.0388620349540e+01  0.0000000000000e+00
     475  5.7518522501330e+00  9.8515346158010e+00  0.0000000000000e+00
     476  6.3890917437850e+00  9.2328035396570e+00  0.0000000000000e+00
     477 -1.4099680979120e+00  1.2562734447440e+01  0.0000000000000e+00
     478  1.7320508075690e+01  1.0000000000000e+01  0.0000000000000e+00
     479  1.4351278119860e+01  8.2857142857140e+00  0.0000000000000e+00
     480  1.4846149779160e+01  8.5714285714290e+00  0.0000000000000e+00
     481  1.5341021438470e+01  8.8571428571430e+00  0.0000000000000e+00
     482  1.5835893097770e+01  9.1428571428570e+00  0.0000000000000e+00
     483  1.6330764757080e+01  9.4285714285710e+00  0.0000000000000e+00
     484  1.6825636416380e+01  9.7142857142860e+00  0.0000000000000e+00
     485  9.3205080756890e+00  2.3856406460550e+01  0.0000000000000e+00
     486  1.7000508075690e+01  1.0554256258420e+01  0.0000000000000e+00
     487  1.6680508075690e+01  1.1108512516840e+01  0.0000000000000e+00
     488  1.6360508075690e+01  1.1662768775270e+01  0.0000000000000e+00
     489  1.6040508075690e+01  1.2217025033690e+01  0.0000000000000e+00
     490  1.5720508075690e+01  1.2771281292110e+01  0.0000000000000e+00
     491  1.5400508075690e+01  1.3325537550530e+01  0.0000000000000e+00
     492  1.5080508075690e+01  1.3879793808950e+01  0.0000000000000e+00
     493  1.4760508075690e+01  1.4434050067380e+01  0.0000000000000e+00
     494  1.4440508075690e+01  1.4988306325800e+01  0.0000000000000e+00
     495  1.4120508075690e+01  1.5542562584220e+01  0.0000000000000e+00
     496  1.3800508075690e+01  1.6096818842640e+01  0.0000000000000e+00
     497  1.3480508075690e+01  1.6651075101060e+01  0.0000000000000e+00
     498  1.3160508075690e+01  1.7205331359490e+01  0.0000000000000e+00
     499  1.2840508075690e+01  1.7759587617910e+01  0.0000000000000e+00
     500  1.2520508075690e+01  1.8313843876330e+01  0.0000000000000e+00
     501  1.2200508075690e+01  1.8868100134750e+01  0.0000000000000e+00
     502  1.1880508075690e+01  1.9422356393170e+01  0.0000000000000e+00
     503  1.1560508075690e+01  1.9976612651600e+01  0.0000000000000e+00
     504  1.1240508075690e+01  2.0530868910020e+01  0.0000000000000e+00
     505  1.0920508075690e+01  2.1085125168440e+01  0.0000000000000e+00
     506  1.0600508075690e+01  2.1639381426860e+01  0.0000000000000e+00
     507  1.0280508075690e+01  2.2193637685280e+01  0.0000000000000e+00
     508  9.9605080756890e+00  2.2747893943710e+01  0.0000000000000e+00
     509  9.6405080756890e+00  2.3302150202130e+01  0.0000000000000e+00
     510  8.8256364163830e+00  2.3570692174840e+01  0.0000000000000e+00
     511  8.3307647570780e+00  2.3284977889120e+01  0.0000000000000e+00
     512  7.8358930977730e+00  2.2999263603410e+01  0.0000000000000e+00
     513  7.3410214384670e+00  2.2713549317690e+01  0.0000000000000e+00
     514  6.8461497791620e+00  2.2427835031980e+01  0.0000000000000e+00
     515  6.3512781198560e+00  2.2142120746270e+01  0.0000000000000e+00
     516  1.4031278119860e+01  8.8399705441360e+00  0.0000000000000e+00
     517  1.3711278119860e+01  9.3942268025580e+00  0.0000000000000e+00
     518  1.3391278119860e+01  9.9484830609800e+00  0.0000000000000e+00
     519  1.3071278119860e+01  1.0502739319400e+01  0.0000000000000e+00
     520  1.2751278119860e+01  1.1056995577820e+01  0.0000000000000e+00
     521  1.2431278119860e+01  1.1611251836250e+01  0.0000000000000e+00
     522  1.2111278119860e+01  1.2165508094670e+01  0.0000000000000e+00
     523  1.1791278119860e+01  1.2719764353090e+01  0.0000000000000e+00
     524  1.1471278119860e+01  1.3274020611510e+01  0.0000000000000e+00
     525  1.1151278119860e+01  1.3828276869930e+01  0.0000000000000e+00
     526  1.0831278119860e+01  1.4382533128360e+01  0.0000000000000e+00
     527  1.0511278119860e+01  1.4936789386780e+01  0.0000000000000e+00
     528  1.0191278119860e+01  1.5491045645200e+01  0.0000000000000e+00
     529  9.8712781198560e+00  1.6045301903620e+01  0.0000000000000e+00
     530  9.5512781198560e+00  1.6599558162040e+01  0.0000000000000e+00
     531  9.2312781198560e+00  1.7153814420470e+01  0.0000000000000e+00
     532  8.9112781198560e+00  1.7708070678890e+01  0.0000000000000e+00
     533  8.5912781198560e+00  1.8262326937310e+01  0.0000000000000e+00
     534  8.2712781198560e+00  1.8816583195730e+01  0.0000000000000e+00
     535  7.9512781198560e+00  1.9370839454160e+01  0.0000000000000e+00
     536  7.6312781198560e+00  1.9925095712580e+01  0.0000000000000e+00
     537  7.3112781198560e+00  2.0479351971000e+01  0.0000000000000e+00
     538  6.9912781198560e+00  2.1033608229420e+01  0.0000000000000e+00
     539  6.6712781198560e+00  2.1587864487840e+01  0.0000000000000e+00
     540  1.4526149779160e+01  9.1256848298510e+00  0.0000000000000e+00
     541  1.4206149779160e+01  9.6799410882730e+00  0.0000000000000e+00
     542  1.3886149779160e+01  1.0234197346690e+01  0.0000000000000e+00
     543  1.3566149779160e+01  1.0788453605120e+01  0.0000000000000e+00
     544  1.3246149779160e+01  1.1342709863540e+01  0.0000000000000e+00
     545  1.2926149779160e+01  1.1896966121960e+01  0.0000000000000e+00
     546  1.2606149779160e+01  1.2451222380380e+01  0.0000000000000e+00
     547  1.2286149779160e+01  1.3005478638800e+01  0.0000000000000e+00
     548  1.1966149779160e+01  1.3559734897230e+01  0.0000000000000e+00
     549  1.1646149779160e+01  1.4113991155650e+01  0.0000000000000e+00
     550  1.1326149779160e+01  1.4668247414070e+01  0.0000000000000e+00
     551  1.1006149779160e+01  1.5222503672490e+01  0.0000000000000e+00
     552  1.0686149779160e+01  1.5776759930920e+01  0.0000000000000e+00
     553  1.0366149779160e+01  1.6331016189340e+01  0.0000000000000e+00
     554  1.0046149779160e+01  1.6885272447760e+01  0.0000000000000e+00
     555  9.7261497791620e+00  1.7439528706180e+01  0.0000000000000e+00
     556  9.4061497791620e+00  1.7993784964600e+01  0.0000000000000e+00
     557  9.0861497791620e+00  1.8548041223030e+01  0.0000000000000e+00
     558  8.7661497791620e+00  1.9102297481450e+01  0.0000000000000e+00
     559  8.4461497791620e+00  1.9656553739870e+01  0.0000000000000e+00
     560  8.1261497791620e+00  2.0210809998290e+01  0.0000000000000e+00
     561  7.8061497791620e+00  2.0765066256710e+01  0.0000000000000e+00
     562  7.4861497791620e+00  2.1319322515140e+01  0.0000000000000e+00
     563  7.1661497791620e+00  2.1873578773560e+01  0.0000000000000e+00
     564  1.5021021438470e+01  9.4113991155650e+00  0.0000000000000e+00
     565  1.4701021438470e+01  9.9656553739870e+00  0.0000000000000e+00
     566  1.4381021438470e+01  1.0519911632410e+01  0.0000000000000e+00
     567  1.4061021438470e+01  1.1074167890830e+01  0.0000000000000e+00
     568  1.3741021438470e+01  1.1628424149250e+01  0.0000000000000e+00
     569  1.3421021438470e+01  1.2182680407680e+01  0.0000000000000e+00
     570  1.3101021438470e+01  1.2736936666100e+01  0.0000000000000e+00
     571  1.2781021438470e+01  1.3291192924520e+01  0.0000000000000e+00
     572  1.2461021438470e+01  1.3845449182940e+01  0.0000000000000e+00
     573  1.2141021438470e+01  1.4399705441360e+01  0.0000000000000e+00
     574  1.1821021438470e+01  1.4953961699790e+01  0.0000000000000e+00
     575  1.1501021438470e+01  1.5508217958210e+01  0.0000000000000e+00
     576  1.1181021438470e+01  1.6062474216630e+01  0.0000000000000e+00
     577  1.0861021438470e+01  1.6616730475050e+01  0.0000000000000e+00
     578  1.0541021438470e+01  1.7170986733470e+01  0.0000000000000e+00
     579  1.0221021438470e+01  1.7725242991900e+01  0.0000000000000e+00
     580  9.9010214384670e+00  1.8279499250320e+01  0.0000000000000e+00
     581  9.5810214384670e+00  1.8833755508740e+01  0.0000000000000e+00
     582  9.2610214384670e+00  1.9388011767160e+01  0.0000000000000e+00
     583  8.9410214384670e+00  1.9942268025580e+01  0.0000000000000e+00
     584  8.6210214384670e+00  2.0496524284010e+01  0.0000000000000e+00
     585  8.3010214384670e+00  2.1050780542430e+01  0.0000000000000e+00
     586  7.9810214384670e+00  2.1605036800850e+01  0.0000000000000e+00
     587  7.6610214384670e+00  2.2159293059270e+01  0.0000000000000e+00
     588  1.5515893097770e+01  9.6971134012790e+00  0.0000000000000e+00
     589  1.5195893097770e+01  1.0251369659700e+01  0.0000000000000e+00
     590  1.4875893097770e+01  1.0805625918120e+01  0.0000000000000e+00
     591  1.4555893097770e+01  1.1359882176550e+01  0.0000000000000e+00
     592  1.4235893097770e+01  1.1914138434970e+01  0.0000000000000e+00
     593  1.3915893097770e+01  1.2468394693390e+01  0.0000000000000e+00
     594  1.3595893097770e+01  1.3022650951810e+01  0.0000000000000e+00
     595  1.3275893097770e+01  1.3576907210230e+01  0.0000000000000e+00
     596  1.2955893097770e+01  1.4131163468660e+01  0.0000000000000e+00
     597  1.2635893097770e+01  1.4685419727080e+01  0.0000000000000e+00
     598  1.2315893097770e+01  1.5239675985500e+01  0.0000000000000e+00
     599  1.1995893097770e+01  1.5793932243920e+01  0.0000000000000e+00
     600  1.1675893097770e+01  1.6348188502340e+01  0.0000000000000e+00
     601  1.1355893097770e+01  1.6902444760770e+01  0.0000000000000e+00
     602  1.1035893097770e+01  1.7456701019190e+01  0.0000000000000e+00
     603  1.0715893097770e+01  1.8010957277610e+01  0.0000000000000e+00
     604  1.0395893097770e+01  1.8565213536030e+01  0.0000000000000e+00
     605  1.0075893097770e+01  1.9119469794450e+01  0.0000000000000e+00
     606  9.7558930977730e+00  1.9673726052880e+01  0.0000000000000e+00
     607  9.4358930977730e+00  2.0227982311300e+01  0.0000000000000e+00
     608  9.1158930977730e+00  2.0782238569720e+01  0.0000000000000e+00
     609  8.7958930977730e+00  2.1336494828140e+01  0.0000000000000e+00
     610  8.4758930977730e+00  2.1890751086560e+01  0.0000000000000e+00
     611  8.1558930977730e+00  2.2445007344990e+01  0.0000000000000e+00
     612  1.6010764757080e+01  9.9828276869930e+00  0.0000000000000e+00
     613  1.5690764757080e+01  1.0537083945420e+01  0.0000000000000e+00
     614  1.5370764757080e+01  1.1091340203840e+01  0.0000000000000e+00
     615  1.5050764757080e+01  1.1645596462260e+01  0.0000000000000e+00
     616  1.4730764757080e+01  1.2199852720680e+01  0.0000000000000e+00
     617  1.4410764757080e+01  1.2754108979100e+01  0.0000000000000e+00
     618  1.4090764757080e+01  1.3308365237530e+01  0.0000000000000e+00
     619  1.3770764757080e+01  1.3862621495950e+01  0.0000000000000e+00
     620  1.3450764757080e+01  1.4416877754370e+01  0.0000000000000e+00
     621  1.3130764757080e+01  1.4971134012790e+01  0.0000000000000e+00
     622  1.2810764757080e+01  1.5525390271210e+01  0.0000000000000e+00
     623  1.2490764757080e+01  1.6079646529640e+01  0.0000000000000e+00
     624  1.2170764757080e+01  1.6633902788060e+01  0.0000000000000e+00
     625  1.1850764757080e+01  1.7188159046480e+01  0.0000000000000e+00
     626  1.1530764757080e+01  1.7742415304900e+01  0.0000000000000e+00
     627  1.1210764757080e+01  1.8296671563320e+01  0.0000000000000e+00
     628  1.0890764757080e+01  1.8850927821750e+01  0.0000000000000e+00
     629  1.0570764757080e+01  1.9405184080170e+01  0.0000000000000e+00
     630  1.0250764757080e+01  1.9959440338590e+01  0.0000000000000e+00
     631  9.9307647570780e+00  2.0513696597010e+01  0.0000000000000e+00
     632  9.6107647570780e+00  2.1067952855430e+01  0.0000000000000e+00
     633  9.2907647570780e+00  2.1622209113860e+01  0.0000000000000e+00
     634  8.9707647570780e+00  2.2176465372280e+01  0.0000000000000e+00
     635  8.6507647570780e+00  2.2730721630700e+01  0.0000000000000e+00
     636  1.6505636416380e+01  1.0268541972710e+01  0.0000000000000e+00
     637  1.6185636416380e+01  1.0822798231130e+01  0.0000000000000e+00
     638  1.5865636416380e+01  1.1377054489550e+01  0.0000000000000e+00
     639  1.5545636416380e+01  1.1931310747970e+01  0.0000000000000e+00
     640  1.5225636416380e+01  1.2485567006400e+01  0.0000000000000e+00
     641  1.4905636416380e+01  1.3039823264820e+01  0.0000000000000e+00
     642  1.4585636416380e+01  1.3594079523240e+01  0.0000000000000e+00
     643  1.4265636416380e+01  1.4148335781660e+01  0.0000000000000e+00
     644  1.3945636416380e+01  1.4702592040080e+01  0.0000000000000e+00
     645  1.3625636416380e+01  1.5256848298510e+01  0.0000000000000e+00
     646  1.3305636416380e+01  1.5811104556930e+01  0.0000000000000e+00
     647  1.2985636416380e+01  1.6365360815350e+01  0.0000000000000e+00
     648  1.2665636416380e+01  1.6919617073770e+01  0.0000000000000e+00
     649  1.2345636416380e+01  1.7473873332190e+01  0.0000000000000e+00
     650  1.2025636416380e+01  1.8028129590620e+01  0.0000000000000e+00
     651  1.1705636416380e+01  1.8582385849040e+01  0.0000000000000e+00
     652  1.1385636416380e+01  1.9136642107460e+01  0.0000000000000e+00
     653  1.1065636416380e+01  1.9690898365880e+01  0.0000000000000e+00
     654  1.0745636416380e+01  2.0245154624300e+01  0.0000000000000e+00
     655  1.0425636416380e+01  2.0799410882730e+01  0.0000000000000e+00
     656  1.0105636416380e+01  2.1353667141150e+01  0.0000000000000e+00
     657  9.7856364163830e+00  2.1907923399570e+01  0.0000000000000e+00
     658  9.4656364163830e+00  2.2462179657990e+01  0.0000000000000e+00
     659  9.1456364163830e+00  2.3016435916410e+01  0.0000000000000e+00
     660  3.8564064605510e+00  2.5320508075690e+01  0.0000000000000e+00
     661  5.5706921748370e+00  2.2351278119860e+01  0.0000000000000e+00
     662  5.2849778891220e+00  2.2846149779160e+01  0.0000000000000e+00
     663  4.9992636034080e+00  2.3341021438470e+01  0.0000000000000e+00
     664  4.7135493176940e+00  2.3835893097770e+01  0.0000000000000e+00
     665  4.4278350319800e+00  2.4330764757080e+01  0.0000000000000e+00
     666  4.1421207462650e+00  2.4825636416380e+01  0.0000000000000e+00
     667 -1.0000000000000e+01  1.7320508075690e+01  0.0000000000000e+00
     668  3.3021502021290e+00  2.5000508075690e+01  0.0000000000000e+00
     669  2.7478939437070e+00  2.4680508075690e+01  0.0000000000000e+00
     670  2.1936376852850e+00  2.4360508075690e+01  0.0000000000000e+00
     671  1.6393814268630e+00  2.4040508075690e+01  0.0000000000000e+00
     672  1.0851251684410e+00  2.3720508075690e+01  0.0000000000000e+00
     673  5.3086891001880e-01  2.3400508075690e+01  0.0000000000000e+00
     674 -2.3387348403270e-02  2.3080508075690e+01  0.0000000000000e+00
     675 -5.7764360682530e-01  2.2760508075690e+01  0.0000000000000e+00
     676 -1.1318998652470e+00  2.2440508075690e+01  0.0000000000000e+00
     677 -1.6861561236690e+00  2.2120508075690e+01  0.0000000000000e+00
     678 -2.2404123820910e+00  2.1800508075690e+01  0.0000000000000e+00
     679 -2.7946686405130e+00  2.1480508075690e+01  0.0000000000000e+00
     680 -3.3489248989360e+00  2.1160508075690e+01  0.0000000000000e+00
     681 -3.9031811573580e+00  2.0840508075690e+01  0.0000000000000e+00
     682 -4.4574374157800e+00  2.0520508075690e+01  0.0000000000000e+00
     683 -5.0116936742020e+00  2.0200508075690e+01  0.0000000000000e+00
     684 -5.5659499326240e+00  1.9880508075690e+01  0.0000000000000e+00
     685 -6.1202061910460e+00  1.9560508075690e+01  0.0000000000000e+00
     686 -6.6744624494680e+00  1.9240508075690e+01  0.0000000000000e+00
     687 -7.2287187078900e+00  1.8920508075690e+01  0.0000000000000e+00
     688 -7.7829749663120e+00  1.8600508075690e+01  0.0000000000000e+00
     689 -8.3372312247340e+00  1.8280508075690e+01  0.0000000000000e+00
     690 -8.8914874831560e+00  1.7960508075690e+01  0.0000000000000e+00
     691 -9.4457437415780e+00  1.7640508075690e+01  0.0000000000000e+00
     692 -9.7142857142860e+00  1.6825636416380e+01  0.0000000000000e+00
     693 -9.4285714285710e+00  1.6330764757080e+01  0.0000000000000e+00
     694 -9.1428571428570e+00  1.5835893097770e+01  0.0000000000000e+00
     695 -8.8571428571430e+00  1.5341021438470e+01  0.0000000000000e+00
     696 -8.5714285714290e+00  1.4846149779160e+01  0.0000000000000e+00
     697 -8.2857142857140e+00  1.4351278119860e+01  0.0000000000000e+00
     698 -7.7314580272920e+00  1.4671278119860e+01  0.0000000000000e+00
     699 -8.0171723130070e+00  1.5166149779160e+01  0.0000000000000e+00
     700 -8.3028865987210e+00  1.5661021438470e+01  0.0000000000000e+00
     701 -8.5886008844350e+00  1.6155893097770e+01  0.0000000000000e+00
     702 -8.8743151701490e+00  1.6650764757080e+01  0.0000000000000e+00
     703 -9.1600294558640e+00  1.7145636416380e+01  0.0000000000000e+00
     704 -7.1772017688700e+00  1.4991278119860e+01  0.0000000000000e+00
     705 -7.4629160545840e+00  1.5486149779160e+01  0.0000000000000e+00
     706 -7.7486303402990e+00  1.5981021438470e+01  0.0000000000000e+00
     707 -8.0343446260130e+00  1.6475893097770e+01  0.0000000000000e+00
     708 -8.3200589117270e+00  1.6970764757080e+01  0.0000000000000e+00
     709 -8.6057731974420e+00  1.7465636416380e+01  0.0000000000000e+00
     710 -6.6229455104480e+00  1.5311278119860e+01  0.0000000000000e+00
     711 -6.9086597961620e+00  1.5806149779160e+01  0.0000000000000e+00
     712 -7.1943740818770e+00  1.6301021438470e+01  0.0000000000000e+00
     713 -7.4800883675910e+00  1.6795893097770e+01  0.0000000000000e+00
     714 -7.7658026533050e+00  1.7290764757080e+01  0.0000000000000e+00
     715 -8.0515169390200e+00  1.7785636416380e+01  0.0000000000000e+00
     716 -6.0686892520260e+00  1.5631278119860e+01  0.0000000000000e+00
     717 -6.3544035377400e+00  1.6126149779160e+01  0.0000000000000e+00
     718 -6.6401178234550e+00  1.6621021438470e+01  0.0000000000000e+00
     719 -6.9258321091690e+00  1.7115893097770e+01  0.0000000000000e+00
     720 -7.2115463948830e+00  1.7610764757080e+01  0.0000000000000e+00
     721 -7.4972606805980e+00  1.8105636416380e+01  0.0000000000000e+00
     722 -5.5144329936040e+00  1.5951278119860e+01  0.0000000000000e+00
     723 -5.8001472793180e+00  1.6446149779160e+01  0.0000000000000e+00
     724 -6.0858615650330e+00  1.6941021438470e+01  0.0000000000000e+00
     725 -6.3715758507470e+00  1.7435893097770e+01  0.0000000000000e+00
     726 -6.6572901364610e+00  1.7930764757080e+01  0.0000000000000e+00
     727 -6.9430044221760e+00  1.8425636416380e+01  0.0000000000000e+00
     728 -4.9601767351820e+00  1.6271278119860e+01  0.0000000000000e+00
     729 -5.2458910208960e+00  1.6766149779160e+01  0.0000000000000e+00
     730 -5.5316053066110e+00  1.7261021438470e+01  0.0000000000000e+00
     731 -5.8173195923250e+00  1.7755893097770e+01  0.0000000000000e+00
     732 -6.1030338780390e+00  1.8250764757080e+01  0.0000000000000e+00
     733 -6.3887481637530e+00  1.8745636416380e+01  0.0000000000000e+00
     734 -4.4059204767600e+00  1.6591278119860e+01  0.0000000000000e+00
     735 -4.6916347624740e+00  1.7086149779160e+01  0.0000000000000e+00
     736 -4.9773490481890e+00  1.7581021438470e+01  0.0000000000000e+00
     737 -5.2630633339030e+00  1.8075893097770e+01  0.0000000000000e+00
     738 -5.5487776196170e+00  1.8570764757080e+01  0.0000000000000e+00
     739 -5.8344919053310e+00  1.9065636416380e+01  0.0000000000000e+00
     740 -3.8516642183380e+00  1.6911278119860e+01  0.0000000000000e+00
     741 -4.1373785040520e+00  1.7406149779160e+01  0.0000000000000e+00
     742 -4.4230927897670e+00  1.7901021438470e+01  0.0000000000000e+00
     743 -4.7088070754810e+00  1.8395893097770e+01  0.0000000000000e+00
     744 -4.9945213611950e+00  1.8890764757080e+01  0.0000000000000e+00
     745 -5.2802356469090e+00  1.9385636416380e+01  0.0000000000000e+00
     746 -3.2974079599160e+00  1.7231278119860e+01  0.0000000000000e+00
     747 -3.5831222456300e+00  1.7726149779160e+01  0.0000000000000e+00
     748 -3.8688365313440e+00  1.8221021438470e+01  0.0000000000000e+00
     749 -4.1545508170590e+00  1.8715893097770e+01  0.0000000000000e+00
     750 -4.4402651027730e+00  1.9210764757080e+01  0.0000000000000e+00
     751 -4.7259793884870e+00  1.9705636416380e+01  0.0000000000000e+00
     752 -2.7431517014940e+00  1.7551278119860e+01  0.0000000000000e+00
     753 -3.0288659872080e+00  1.8046149779160e+01  0.0000000000000e+00
     754 -3.3145802729220e+00  1.8541021438470e+01  0.0000000000000e+00
     755 -3.6002945586370e+00  1.9035893097770e+01  0.0000000000000e+00
     756 -3.8860088443510e+00  1.9530764757080e+01  0.0000000000000e+00
     757 -4.1717231300650e+00  2.0025636416380e+01  0.0000000000000e+00
     758 -2.1888954430720e+00  1.7871278119860e+01  0.0000000000000e+00
     759 -2.4746097287860e+00  1.8366149779160e+01  0.0000000000000e+00
     760 -2.7603240145000e+00  1.8861021438470e+01  0.0000000000000e+00
     761 -3.0460383002150e+00  1.9355893097770e+01  0.0000000000000e+00
     762 -3.3317525859290e+00  1.9850764757080e+01  0.0000000000000e+00
     763 -3.6174668716430e+00  2.0345636416380e+01  0.0000000000000e+00
     764 -1.6346391846500e+00  1.8191278119860e+01  0.0000000000000e+00
     765 -1.9203534703640e+00  1.8686149779160e+01  0.0000000000000e+00
     766 -2.2060677560780e+00  1.9181021438470e+01  0.0000000000000e+00
     767 -2.4917820417930e+00  1.9675893097770e+01  0.0000000000000e+00
     768 -2.7774963275070e+00  2.0170764757080e+01  0.0000000000000e+00
     769 -3.0632106132210e+00  2.0665636416380e+01  0.0000000000000e+00
     770 -1.0803829262280e+00  1.8511278119860e+01  0.0000000000000e+00
     771 -1.3660972119420e+00  1.9006149779160e+01  0.0000000000000e+00
     772 -1.6518114976560e+00  1.9501021438470e+01  0.0000000000000e+00
     773 -1.9375257833710e+00  1.9995893097770e+01  0.0000000000000e+00
     774 -2.2232400690850e+00  2.0490764757080e+01  0.0000000000000e+00
     775 -2.5089543547990e+00  2.0985636416380e+01  0.0000000000000e+00
     776 -5.2612666780570e-01  1.8831278119860e+01  0.0000000000000e+00
     777 -8.1184095352000e-01  1.9326149779160e+01  0.0000000000000e+00
     778 -1.0975552392340e+00  1.9821021438470e+01  0.0000000000000e+00
     779 -1.3832695249490e+00  2.0315893097770e+01  0.0000000000000e+00
     780 -1.6689838106630e+00  2.0810764757080e+01  0.0000000000000e+00
     781 -1.9546980963770e+00  2.1305636416380e+01  0.0000000000000e+00
     782  2.8129590616330e-02  1.9151278119860e+01  0.0000000000000e+00
     783 -2.5758469509800e-01  1.9646149779160e+01  0.0000000000000e+00
     784 -5.4329898081220e-01  2.0141021438470e+01  0.0000000000000e+00
     785 -8.2901326652650e-01  2.0635893097770e+01  0.0000000000000e+00
     786 -1.1147275522410e+00  2.1130764757080e+01  0.0000000000000e+00
     787 -1.4004418379550e+00  2.1625636416380e+01  0.0000000000000e+00
     788  5.8238584903840e-01  1.9471278119860e+01  0.0000000000000e+00
     789  2.9667156332410e-01  1.9966149779160e+01  0.0000000000000e+00
     790  1.0957277609800e-02  2.0461021438470e+01  0.0000000000000e+00
     791 -2.7475700810450e-01  2.0955893097770e+01  0.0000000000000e+00
     792 -5.6047129381880e-01  2.1450764757080e+01  0.0000000000000e+00
     793 -8.4618557953310e-01  2.1945636416380e+01  0.0000000000000e+00
     794  1.1366421074600e+00  1.9791278119860e+01  0.0000000000000e+00
     795  8.5092782174610e-01  2.0286149779160e+01  0.0000000000000e+00
     796  5.6521353603180e-01  2.0781021438470e+01  0.0000000000000e+00
     797  2.7949925031750e-01  2.1275893097770e+01  0.0000000000000e+00
     798 -6.2150353967390e-03  2.1770764757080e+01  0.0000000000000e+00
     799 -2.9192932111100e-01  2.2265636416380e+01  0.0000000000000e+00
     800  1.6908983658820e+00  2.0111278119860e+01  0.0000000000000e+00
     801  1.4051840801680e+00  2.0606149779160e+01  0.0000000000000e+00
     802  1.1194697944540e+00  2.1101021438470e+01  0.0000000000000e+00
     803  8.3375550873960e-01  2.1595893097770e+01  0.0000000000000e+00
     804  5.4804122302530e-01  2.2090764757080e+01  0.0000000000000e+00
     805  2.6232693731100e-01  2.2585636416380e+01  0.0000000000000e+00
     806  2.2451546243040e+00  2.0431278119860e+01  0.0000000000000e+00
     807  1.9594403385900e+00  2.0926149779160e+01  0.0000000000000e+00
     808  1.6737260528760e+00  2.1421021438470e+01  0.0000000000000e+00
     809  1.3880117671620e+00  2.1915893097770e+01  0.0000000000000e+00
     810  1.1022974814470e+00  2.2410764757080e+01  0.0000000000000e+00
     811  8.1658319573310e-01  2.2905636416380e+01  0.0000000000000e+00
     812  2.7994108827270e+00  2.0751278119860e+01  0.0000000000000e+00
     813  2.5136965970120e+00  2.1246149779160e+01  0.0000000000000e+00
     814  2.2279823112980e+00  2.1741021438470e+01  0.0000000000000e+00
     815  1.9422680255840e+00  2.2235893097770e+01  0.0000000000000e+00
     816  1.6565537398690e+00  2.2730764757080e+01  0.0000000000000e+00
     817  1.3708394541550e+00  2.3225636416380e+01  0.0000000000000e+00
     818  3.3536671411490e+00  2.1071278119860e+01  0.0000000000000e+00
     819  3.0679528554340e+00  2.1566149779160e+01  0.0000000000000e+00
     820  2.7822385697200e+00  2.2061021438470e+01  0.0000000000000e+00
     821  2.4965242840060e+00  2.2555893097770e+01  0.0000000000000e+00
     822  2.2108099982910e+00  2.3050764757080e+01  0.0000000000000e+00
     823  1.9250957125770e+00  2.3545636416380e+01  0.0000000000000e+00
     824  3.9079233995710e+00  2.1391278119860e+01  0.0000000000000e+00
     825  3.6222091138560e+00  2.1886149779160e+01  0.0000000000000e+00
     826  3.3364948281420e+00  2.2381021438470e+01  0.0000000000000e+00
     827  3.0507805424280e+00  2.2875893097770e+01  0.0000000000000e+00
     828  2.7650662567130e+00  2.3370764757080e+01  0.0000000000000e+00
     829  2.4793519709990e+00  2.3865636416380e+01  0.0000000000000e+00
     830  4.4621796579930e+00  2.1711278119860e+01  0.0000000000000e+00
     831  4.1764653722780e+00  2.2206149779160e+01  0.0000000000000e+00
     832  3.8907510865640e+00  2.2701021438470e+01  0.0000000000000e+00
     833  3.6050368008500e+00  2.3195893097770e+01  0.0000000000000e+00
     834  3.3193225151360e+00  2.3690764757080e+01  0.0000000000000e+00
     835  3.0336082294210e+00  2.4185636416380e+01  0.0000000000000e+00
     836  5.0164359164150e+00  2.2031278119860e+01  0.0000000000000e+00
     837  4.7307216307000e+00  2.2526149779160e+01  0.0000000000000e+00
     838  4.4450073449860e+00  2.3021021438470e+01  0.0000000000000e+00
     839  4.1592930592720e+00  2.3515893097770e+01  0.0000000000000e+00
     840  3.8735787735580e+00  2.4010764757080e+01  0.0000000000000e+00
     841  3.5878644878430e+00  2.4505636416380e+01  0.0000000000000e+00
     842  7.3205080756890e+00  2.7320508075690e+01  0.0000000000000e+00
     843  9.0347937899740e+00  2.4351278119860e+01  0.0000000000000e+00
     844  8.7490795042600e+00  2.4846149779160e+01  0.0000000000000e+00
     845  8.4633652185460e+00  2.5341021438470e+01  0.0000000000000e+00
     846  8.1776509328320e+00  2.5835893097770e+01  0.0000000000000e+00
     847  7.8919366471170e+00  2.6330764757080e+01  0.0000000000000e+00
     848  7.6062223614030e+00  2.6825636416380e+01  0.0000000000000e+00
     849  6.8256364163830e+00  2.7034793789970e+01  0.0000000000000e+00
     850  6.3307647570780e+00  2.6749079504260e+01  0.0000000000000e+00
     851  5.8358930977730e+00  2.6463365218550e+01  0.0000000000000e+00
     852  5.3410214384670e+00  2.6177650932830e+01  0.0000000000000e+00
     853  4.8461497791620e+00  2.5891936647120e+01  0.0000000000000e+00
     854  4.3512781198560e+00  2.5606222361400e+01  0.0000000000000e+00
     855  6.0655638341420e+00  2.2636992405570e+01  0.0000000000000e+00
     856  5.7798495484280e+00  2.3131864064880e+01  0.0000000000000e+00
     857  5.4941352627140e+00  2.3626735724180e+01  0.0000000000000e+00
     858  5.2084209769990e+00  2.4121607383490e+01  0.0000000000000e+00
     859  4.9227066912850e+00  2.4616479042790e+01  0.0000000000000e+00
     860  4.6369924055710e+00  2.5111350702100e+01  0.0000000000000e+00
     861  6.5604354934480e+00  2.2922706691280e+01  0.0000000000000e+00
     862  6.2747212077330e+00  2.3417578350590e+01  0.0000000000000e+00
     863  5.9890069220190e+00  2.3912450009900e+01  0.0000000000000e+00
     864  5.7032926363050e+00  2.4407321669200e+01  0.0000000000000e+00
     865  5.4175783505900e+00  2.4902193328510e+01  0.0000000000000e+00
     866  5.1318640648760e+00  2.5397064987810e+01  0.0000000000000e+00
     867  7.0553071527530e+00  2.3208420977000e+01  0.0000000000000e+00
     868  6.7695928670390e+00  2.3703292636300e+01  0.0000000000000e+00
     869  6.4838785813240e+00  2.4198164295610e+01  0.0000000000000e+00
     870  6.1981642956100e+00  2.4693035954920e+01  0.0000000000000e+00
     871  5.9124500098960e+00  2.5187907614220e+01  0.0000000000000e+00
     872  5.6267357241810e+00  2.5682779273530e+01  0.0000000000000e+00
     873  7.5501788120580e+00  2.3494135262710e+01  0.0000000000000e+00
     874  7.2644645263440e+00  2.3989006922020e+01  0.0000000000000e+00
     875  6.9787502406300e+00  2.4483878581320e+01  0.0000000000000e+00
     876  6.6930359549150e+00  2.4978750240630e+01  0.0000000000000e+00
     877  6.4073216692010e+00  2.5473621899940e+01  0.0000000000000e+00
     878  6.1216073834870e+00  2.5968493559240e+01  0.0000000000000e+00
     879  8.0450504713640e+00  2.3779849548430e+01  0.0000000000000e+00
     880  7.7593361856490e+00  2.4274721207730e+01  0.0000000000000e+00
     881  7.4736218999350e+00  2.4769592867040e+01  0.0000000000000e+00
     882  7.1879076142210e+00  2.5264464526340e+01  0.0000000000000e+00
     883  6.9021933285070e+00  2.5759336185650e+01  0.0000000000000e+00
     884  6.6164790427920e+00  2.6254207844950e+01  0.0000000000000e+00
     885  8.5399221306690e+00  2.4065563834140e+01  0.0000000000000e+00
     886  8.2542078449550e+00  2.4560435493450e+01  0.0000000000000e+00
     887  7.9684935592410e+00  2.5055307152750e+01  0.0000000000000e+00
     888  7.6827792735260e+00  2.5550178812060e+01  0.0000000000000e+00
     889  7.3970649878120e+00  2.6045050471360e+01  0.0000000000000e+00
     890  7.1113507020980e+00  2.6539922130670e+01  0.0000000000000e+00

[3D Elements]
#ElemNr  ElemType  NrOfNodes  Level
#Node1 Node2 ... NodeNrOfNodes

[2D Elements]
#ElemNr  ElemType  NrOfNodes  Level
#Node1 Node2 ... NodeNrOfNodes
1 6 4 inner
170 127 97 169
2 6 4 inner
102 168 169 97
3 6 4 inner
102 110 167 168
4 6 4 inner
131 147 130 149
5 6 4 inner
131 129 146 147
6 6 4 inner
165 162 457 456
7 6 4 inner
165 125 144 162
8 6 4 inner
116 99 102 97
9 6 4 inner
116 97 127 128
10 6 4 inner
121 122 138 98
11 6 4 inner
121 98 108 107
12 6 4 inner
98 123 124 108
13 6 4 inner
139 123 98 138
14 6 4 inner
477 142 124 123
15 6 4 inner
477 140 141 142
16 6 4 inner
123 139 140 477
17 6 4 inner
122 121 136 137
18 6 4 inner
121 106 120 136
19 6 4 inner
121 107 105 106
20 6 4 inner
106 103 119 120
21 6 4 inner
106 105 101 103
22 6 4 inner
103 100 118 119
23 6 4 inner
103 101 104 100
24 6 4 inner
100 116 117 118
25 6 4 inner
100 104 99 116
26 6 4 inner
140 157 158 141
27 6 4 inner
139 156 157 140
28 6 4 inner
138 155 156 139
29 6 4 inner
122 154 155 138
30 6 4 inner
137 153 154 122
31 6 4 inner
136 152 153 137
32 6 4 inner
120 135 152 136
33 6 4 inner
119 134 135 120
34 6 4 inner
118 133 134 119
35 6 4 inner
117 132 133 118
36 6 4 inner
116 128 145 117
37 6 4 inner
145 129 131 117
38 6 4 inner
131 149 132 117
39 6 4 inner
142 161 143 124
40 6 4 inner
141 160 161 142
41 6 4 inner
158 159 160 141
42 6 4 inner
124 143 126 108
43 6 4 inner
108 126 115 107
44 6 4 inner
107 115 114 105
45 6 4 inner
105 114 113 101
46 6 4 inner
101 113 112 104
47 6 4 inner
104 112 111 99
48 6 4 inner
99 111 110 102
49 6 4 inner
147 175 176 130
50 6 4 inner
146 174 175 147
51 6 4 inner
129 173 174 146
52 6 4 inner
145 172 173 129
53 6 4 inner
128 171 172 145
54 6 4 inner
127 170 171 128
55 6 4 inner
158 187 188 159
56 6 4 inner
157 186 187 158
57 6 4 inner
156 185 186 157
58 6 4 inner
155 184 185 156
59 6 4 inner
154 183 184 155
60 6 4 inner
153 182 183 154
61 6 4 inner
152 181 182 153
62 6 4 inner
135 180 181 152
63 6 4 inner
134 151 180 135
64 6 4 inner
133 179 151 134
65 6 4 inner
132 150 179 133
66 6 4 inner
149 178 150 132
67 6 4 inner
130 148 178 149
68 6 4 inner
176 177 148 130
69 6 4 inner
161 192 467 143
70 6 4 inner
160 191 192 161
71 6 4 inner
159 190 191 160
72 6 4 inner
188 189 190 159
73 6 4 inner
143 467 468 126
74 6 4 inner
126 468 469 115
75 6 4 inner
115 469 470 114
76 6 4 inner
114 470 471 113
77 6 4 inner
113 471 472 112
78 6 4 inner
112 472 473 111
79 6 4 inner
111 473 474 110
80 6 4 inner
110 109 166 167
81 6 4 inner
109 125 165 166
82 6 4 inner
110 474 475 109
83 6 4 inner
109 475 476 125
84 6 4 inner
125 476 464 144
85 6 4 inner
165 456 455 166
86 6 4 inner
166 455 454 167
87 6 4 inner
167 454 453 168
88 6 4 inner
168 453 452 169
89 6 4 inner
169 452 451 170
90 6 4 inner
170 451 450 171
91 6 4 inner
171 450 449 172
92 6 4 inner
172 449 448 173
93 6 4 inner
173 448 447 174
94 6 4 inner
174 447 446 175
95 6 4 inner
175 446 445 176
96 6 4 inner
176 445 444 177
97 6 4 inner
188 428 427 189
98 6 4 inner
187 429 428 188
99 6 4 inner
186 430 429 187
100 6 4 inner
185 431 430 186
101 6 4 inner
184 432 431 185
102 6 4 inner
183 433 432 184
103 6 4 inner
182 434 433 183
104 6 4 inner
181 435 434 182
105 6 4 inner
180 436 435 181
106 6 4 inner
151 437 436 180
107 6 4 inner
179 438 437 151
108 6 4 inner
150 439 438 179
109 6 4 inner
178 440 439 150
110 6 4 inner
148 441 440 178
111 6 4 inner
177 442 441 148
112 6 4 inner
444 443 442 177
113 6 4 inner
162 163 458 457
114 6 4 inner
163 164 459 458
115 6 4 inner
164 461 460 459
116 6 4 inner
163 462 461 164
117 6 4 inner
162 463 462 163
118 6 4 inner
144 465 463 162
119 6 4 inner
464 466 465 144
120 6 4 inner
192 422 421 467
121 6 4 inner
191 423 422 192
122 6 4 inner
190 424 423 191
123 6 4 inner
189 425 424 190
124 6 4 inner
427 426 425 189
125 6 4 inner
444 229 230 443
126 6 4 inner
445 228 229 444
127 6 4 inner
446 227 228 445
128 6 4 inner
447 226 227 446
129 6 4 inner
448 225 226 447
130 6 4 inner
449 224 225 448
131 6 4 inner
450 223 224 449
132 6 4 inner
451 222 223 450
133 6 4 inner
452 221 222 451
134 6 4 inner
453 220 221 452
135 6 4 inner
454 219 220 453
136 6 4 inner
455 218 219 454
137 6 4 inner
456 217 218 455
138 6 4 inner
457 216 217 456
139 6 4 inner
458 215 216 457
140 6 4 inner
459 214 215 458
141 6 4 inner
460 213 214 459
142 6 4 inner
461 211 420 460
143 6 4 inner
420 212 213 460
144 6 4 inner
462 210 211 461
145 6 4 inner
463 209 210 462
146 6 4 inner
465 208 209 463
147 6 4 inner
466 207 208 465
148 6 4 inner
466 193 205 207
149 6 4 inner
464 206 193 466
150 6 4 inner
476 194 206 464
151 6 4 inner
475 195 194 476
152 6 4 inner
474 196 195 475
153 6 4 inner
473 197 196 474
154 6 4 inner
472 198 197 473
155 6 4 inner
471 199 198 472
156 6 4 inner
470 200 199 471
157 6 4 inner
469 201 200 470
158 6 4 inner
468 202 201 469
159 6 4 inner
467 203 202 468
160 6 4 inner
421 204 203 467
161 6 4 inner
421 256 257 204
162 6 4 inner
422 255 256 421
163 6 4 inner
423 254 255 422
164 6 4 inner
424 253 254 423
165 6 4 inner
425 252 253 424
166 6 4 inner
426 251 252 425
167 6 4 inner
426 249 250 251
168 6 4 inner
427 248 249 426
169 6 4 inner
428 247 248 427
170 6 4 inner
429 246 247 428
171 6 4 inner
430 245 246 429
172 6 4 inner
431 244 245 430
173 6 4 inner
432 243 244 431
174 6 4 inner
433 242 243 432
175 6 4 inner
434 241 242 433
176 6 4 inner
435 240 241 434
177 6 4 inner
436 239 240 435
178 6 4 inner
437 238 239 436
179 6 4 inner
438 237 238 437
180 6 4 inner
439 236 237 438
181 6 4 inner
440 235 236 439
182 6 4 inner
441 234 235 440
183 6 4 inner
442 233 234 441
184 6 4 inner
443 232 233 442
185 6 4 inner
230 231 232 443
186 6 4 inner
420 280 281 212
187 6 4 inner
211 279 280 420
188 6 4 inner
210 278 279 211
189 6 4 inner
209 277 278 210
190 6 4 inner
208 276 277 209
191 6 4 inner
207 275 276 208
192 6 4 inner
205 274 275 207
193 6 4 inner
205 258 273 274
194 6 4 inner
193 259 258 205
195 6 4 inner
206 260 259 193
196 6 4 inner
194 261 260 206
197 6 4 inner
195 262 261 194
198 6 4 inner
196 263 262 195
199 6 4 inner
197 264 263 196
200 6 4 inner
198 265 264 197
201 6 4 inner
199 266 265 198
202 6 4 inner
200 267 266 199
203 6 4 inner
201 268 267 200
204 6 4 inner
202 269 268 201
205 6 4 inner
203 270 269 202
206 6 4 inner
204 271 270 203
207 6 4 inner
257 272 271 204
208 6 4 inner
257 332 333 272
209 6 4 inner
256 331 332 257
210 6 4 inner
255 330 331 256
211 6 4 inner
254 329 330 255
212 6 4 inner
253 328 329 254
213 6 4 inner
252 327 328 253
214 6 4 inner
251 326 327 252
215 6 4 inner
250 325 326 251
216 6 4 inner
250 323 324 325
217 6 4 inner
249 322 323 250
218 6 4 inner
248 321 322 249
219 6 4 inner
247 320 321 248
220 6 4 inner
246 319 320 247
221 6 4 inner
245 318 319 246
222 6 4 inner
244 317 318 245
223 6 4 inner
243 316 317 244
224 6 4 inner
242 315 316 243
225 6 4 inner
241 314 315 242
226 6 4 inner
240 313 314 241
227 6 4 inner
239 312 313 240
228 6 4 inner
238 311 312 239
229 6 4 inner
237 310 311 238
230 6 4 inner
236 309 310 237
231 6 4 inner
235 308 309 236
232 6 4 inner
234 307 308 235
233 6 4 inner
233 306 307 234
234 6 4 inner
232 305 306 233
235 6 4 inner
231 304 305 232
236 6 4 inner
231 302 303 304
237 6 4 inner
230 301 302 231
238 6 4 inner
229 300 301 230
239 6 4 inner
228 299 300 229
240 6 4 inner
227 298 299 228
241 6 4 inner
226 297 298 227
242 6 4 inner
225 296 297 226
243 6 4 inner
224 295 296 225
244 6 4 inner
223 294 295 224
245 6 4 inner
222 293 294 223
246 6 4 inner
221 292 293 222
247 6 4 inner
220 291 292 221
248 6 4 inner
219 290 291 220
249 6 4 inner
218 289 290 219
250 6 4 inner
217 288 289 218
251 6 4 inner
216 287 288 217
252 6 4 inner
215 286 287 216
253 6 4 inner
214 285 286 215
254 6 4 inner
213 284 285 214
255 6 4 inner
212 283 284 213
256 6 4 inner
281 282 283 212
257 6 4 inner
258 335 334 273
258 6 4 inner
259 336 335 258
259 6 4 inner
260 337 336 259
260 6 4 inner
261 338 337 260
261 6 4 inner
262 339 338 261
262 6 4 inner
263 340 339 262
263 6 4 inner
264 341 340 263
264 6 4 inner
265 342 341 264
265 6 4 inner
266 343 342 265
266 6 4 inner
267 344 343 266
267 6 4 inner
268 345 344 267
268 6 4 inner
269 346 345 268
269 6 4 inner
270 347 346 269
270 6 4 inner
271 348 347 270
271 6 4 inner
272 349 348 271
272 6 4 inner
333 350 349 272
273 6 4 inner
333 419 418 350
274 6 4 inner
332 417 419 333
275 6 4 inner
331 416 417 332
276 6 4 inner
330 415 416 331
277 6 4 inner
329 414 415 330
278 6 4 inner
328 413 414 329
279 6 4 inner
327 412 413 328
280 6 4 inner
326 411 412 327
281 6 4 inner
325 410 411 326
282 6 4 inner
324 409 410 325
283 6 4 inner
324 407 408 409
284 6 4 inner
323 406 407 324
285 6 4 inner
322 405 406 323
286 6 4 inner
321 404 405 322
287 6 4 inner
320 403 404 321
288 6 4 inner
319 402 403 320
289 6 4 inner
318 401 402 319
290 6 4 inner
317 400 401 318
291 6 4 inner
316 399 400 317
292 6 4 inner
315 398 399 316
293 6 4 inner
314 397 398 315
294 6 4 inner
313 396 397 314
295 6 4 inner
312 395 396 313
296 6 4 inner
311 394 395 312
297 6 4 inner
310 393 394 311
298 6 4 inner
309 392 393 310
299 6 4 inner
308 391 392 309
300 6 4 inner
307 390 391 308
301 6 4 inner
306 389 390 307
302 6 4 inner
305 388 389 306
303 6 4 inner
304 387 388 305
304 6 4 inner
303 386 387 304
305 6 4 inner
303 384 385 386
306 6 4 inner
302 383 384 303
307 6 4 inner
301 382 383 302
308 6 4 inner
300 381 382 301
309 6 4 inner
299 380 381 300
310 6 4 inner
298 379 380 299
311 6 4 inner
297 378 379 298
312 6 4 inner
296 377 378 297
313 6 4 inner
295 376 377 296
314 6 4 inner
294 375 376 295
315 6 4 inner
293 374 375 294
316 6 4 inner
292 373 374 293
317 6 4 inner
291 372 373 292
318 6 4 inner
290 371 372 291
319 6 4 inner
289 370 371 290
320 6 4 inner
288 369 370 289
321 6 4 inner
287 368 369 288
322 6 4 inner
286 367 368 287
323 6 4 inner
285 366 367 286
324 6 4 inner
284 365 366 285
325 6 4 inner
283 364 365 284
326 6 4 inner
282 363 364 283
327 6 4 inner
282 361 362 363
328 6 4 inner
281 360 361 282
329 6 4 inner
280 359 360 281
330 6 4 inner
279 358 359 280
331 6 4 inner
278 357 358 279
332 6 4 inner
277 356 357 278
333 6 4 inner
276 355 356 277
334 6 4 inner
275 354 355 276
335 6 4 inner
274 353 354 275
336 6 4 inner
273 352 353 274
337 6 4 inner
334 351 352 273
338 6 4 inner
417 75 76 419
339 6 4 inner
419 76 77 418
340 6 4 inner
416 74 75 417
341 6 4 inner
415 73 74 416
342 6 4 inner
414 72 73 415
343 6 4 inner
413 71 72 414
344 6 4 inner
412 70 71 413
345 6 4 inner
411 69 70 412
346 6 4 inner
410 68 69 411
347 6 4 inner
409 67 68 410
348 6 4 inner
408 66 67 409
349 6 4 inner
408 64 40 66
350 6 4 inner
407 63 64 408
351 6 4 inner
406 62 63 407
352 6 4 inner
405 61 62 406
353 6 4 inner
404 60 61 405
354 6 4 inner
403 59 60 404
355 6 4 inner
402 58 59 403
356 6 4 inner
401 57 58 402
357 6 4 inner
400 56 57 401
358 6 4 inner
399 55 56 400
359 6 4 inner
398 54 55 399
360 6 4 inner
397 53 54 398
361 6 4 inner
396 52 53 397
362 6 4 inner
395 51 52 396
363 6 4 inner
394 50 51 395
364 6 4 inner
393 49 50 394
365 6 4 inner
392 48 49 393
366 6 4 inner
391 47 48 392
367 6 4 inner
390 46 47 391
368 6 4 inner
389 45 46 390
369 6 4 inner
388 44 45 389
370 6 4 inner
387 43 44 388
371 6 4 inner
386 42 43 387
372 6 4 inner
385 41 42 386
373 6 4 inner
385 39 15 41
374 6 4 inner
384 38 39 385
375 6 4 inner
383 37 38 384
376 6 4 inner
382 36 37 383
377 6 4 inner
381 35 36 382
378 6 4 inner
380 34 35 381
379 6 4 inner
379 33 34 380
380 6 4 inner
378 32 33 379
381 6 4 inner
377 31 32 378
382 6 4 inner
376 30 31 377
383 6 4 inner
375 29 30 376
384 6 4 inner
374 28 29 375
385 6 4 inner
373 27 28 374
386 6 4 inner
372 26 27 373
387 6 4 inner
371 25 26 372
388 6 4 inner
370 24 25 371
389 6 4 inner
369 23 24 370
390 6 4 inner
368 22 23 369
391 6 4 inner
367 21 22 368
392 6 4 inner
366 20 21 367
393 6 4 inner
365 19 20 366
394 6 4 inner
364 18 19 365
395 6 4 inner
363 17 18 364
396 6 4 inner
362 16 17 363
397 6 4 inner
362 14 2 16
398 6 4 inner
361 13 14 362
399 6 4 inner
360 12 13 361
400 6 4 inner
359 11 12 360
401 6 4 inner
358 10 11 359
402 6 4 inner
357 9 10 358
403 6 4 inner
356 8 9 357
404 6 4 inner
355 7 8 356
405 6 4 inner
354 6 7 355
406 6 4 inner
353 5 6 354
407 6 4 inner
352 4 5 353
408 6 4 inner
351 3 4 352
409 6 4 inner
351 78 1 3
410 6 4 inner
334 79 78 351
411 6 4 inner
335 80 79 334
412 6 4 inner
336 81 80 335
413 6 4 inner
337 82 81 336
414 6 4 inner
338 83 82 337
415 6 4 inner
339 84 83 338
416 6 4 inner
340 85 84 339
417 6 4 inner
341 86 85 340
418 6 4 inner
342 87 86 341
419 6 4 inner
343 88 87 342
420 6 4 inner
344 89 88 343
421 6 4 inner
345 90 89 344
422 6 4 inner
346 91 90 345
423 6 4 inner
347 92 91 346
424 6 4 inner
348 93 92 347
425 6 4 inner
349 94 93 348
426 6 4 inner
350 95 94 349
427 6 4 inner
418 96 95 350
428 6 4 inner
77 65 96 418
429 6 4 pml
2 479 516 16
430 6 4 pml
479 480 540 516
431 6 4 pml
480 481 564 540
432 6 4 pml
481 482 588 564
433 6 4 pml
482 483 612 588
434 6 4 pml
483 484 636 612
435 6 4 pml
484 478 486 636
436 6 4 pml
16 516 517 17
437 6 4 pml
516 540 541 517
438 6 4 pml
540 564 565 541
439 6 4 pml
564 588 589 565
440 6 4 pml
588 612 613 589
441 6 4 pml
612 636 637 613
442 6 4 pml
636 486 487 637
443 6 4 pml
17 517 518 18
444 6 4 pml
517 541 542 518
445 6 4 pml
541 565 566 542
446 6 4 pml
565 589 590 566
447 6 4 pml
589 613 614 590
448 6 4 pml
613 637 638 614
449 6 4 pml
637 487 488 638
450 6 4 pml
18 518 519 19
451 6 4 pml
518 542 543 519
452 6 4 pml
542 566 567 543
453 6 4 pml
566 590 591 567
454 6 4 pml
590 614 615 591
455 6 4 pml
614 638 639 615
456 6 4 pml
638 488 489 639
457 6 4 pml
19 519 520 20
458 6 4 pml
519 543 544 520
459 6 4 pml
543 567 568 544
460 6 4 pml
567 591 592 568
461 6 4 pml
591 615 616 592
462 6 4 pml
615 639 640 616
463 6 4 pml
639 489 490 640
464 6 4 pml
20 520 521 21
465 6 4 pml
520 544 545 521
466 6 4 pml
544 568 569 545
467 6 4 pml
568 592 593 569
468 6 4 pml
592 616 617 593
469 6 4 pml
616 640 641 617
470 6 4 pml
640 490 491 641
471 6 4 pml
21 521 522 22
472 6 4 pml
521 545 546 522
473 6 4 pml
545 569 570 546
474 6 4 pml
569 593 594 570
475 6 4 pml
593 617 618 594
476 6 4 pml
617 641 642 618
477 6 4 pml
641 491 492 642
478 6 4 pml
22 522 523 23
479 6 4 pml
522 546 547 523
480 6 4 pml
546 570 571 547
481 6 4 pml
570 594 595 571
482 6 4 pml
594 618 619 595
483 6 4 pml
618 642 643 619
484 6 4 pml
642 492 493 643
485 6 4 pml
23 523 524 24
486 6 4 pml
523 547 548 524
487 6 4 pml
547 571 572 548
488 6 4 pml
571 595 596 572
489 6 4 pml
595 619 620 596
490 6 4 pml
619 643 644 620
491 6 4 pml
643 493 494 644
492 6 4 pml
24 524 525 25
493 6 4 pml
524 548 549 525
494 6 4 pml
548 572 573 549
495 6 4 pml
572 596 597 573
496 6 4 pml
596 620 621 597
497 6 4 pml
620 644 645 621
498 6 4 pml
644 494 495 645
499 6 4 pml
25 525 526 26
500 6 4 pml
525 549 550 526
501 6 4 pml
549 573 574 550
502 6 4 pml
573 597 598 574
503 6 4 pml
597 621 622 598
504 6 4 pml
621 645 646 622
505 6 4 pml
645 495 496 646
506 6 4 pml
26 526 527 27
507 6 4 pml
526 550 551 527
508 6 4 pml
550 574 575 551
509 6 4 pml
574 598 599 575
510 6 4 pml
598 622 623 599
511 6 4 pml
622 646 647 623
512 6 4 pml
646 496 497 647
513 6 4 pml
27 527 528 28
514 6 4 pml
527 551 552 528
515 6 4 pml
551 575 576 552
516 6 4 pml
575 599 600 576
517 6 4 pml
599 623 624 600
518 6 4 pml
623 647 648 624
519 6 4 pml
647 497 498 648
520 6 4 pml
28 528 529 29
521 6 4 pml
528 552 553 529
522 6 4 pml
552 576 577 553
523 6 4 pml
576 600 601 577
524 6 4 pml
600 624 625 601
525 6 4 pml
624 648 649 625
526 6 4 pml
648 498 499 649
527 6 4 pml
29 529 530 30
528 6 4 pml
529 553 554 530
529 6 4 pml
553 577 578 554
530 6 4 pml
577 601 602 578
531 6 4 pml
601 625 626 602
532 6 4 pml
625 649 650 626
533 6 4 pml
649 499 500 650
534 6 4 pml
30 530 531 31
535 6 4 pml
530 554 555 531
536 6 4 pml
554 578 579 555
537 6 4 pml
578 602 603 579
538 6 4 pml
602 626 627 603
539 6 4 pml
626 650 651 627
540 6 4 pml
650 500 501 651
541 6 4 pml
31 531 532 32
542 6 4 pml
531 555 556 532
543 6 4 pml
555 579 580 556
544 6 4 pml
579 603 604 580
545 6 4 pml
603 627 628 604
546 6 4 pml
627 651 652 628
547 6 4 pml
651 501 502 652
548 6 4 pml
32 532 533 33
549 6 4 pml
532 556 557 533
550 6 4 pml
556 580 581 557
551 6 4 pml
580 604 605 581
552 6 4 pml
604 628 629 605
553 6 4 pml
628 652 653 629
554 6 4 pml
652 502 503 653
555 6 4 pml
33 533 534 34
556 6 4 pml
533 557 558 534
557 6 4 pml
557 581 582 558
558 6 4 pml
581 605 606 582
559 6 4 pml
605 629 630 606
560 6 4 pml
629 653 654 630
561 6 4 pml
653 503 504 654
562 6 4 pml
34 534 535 35
563 6 4 pml
534 558 559 535
564 6 4 pml
558 582 583 559
565 6 4 pml
582 606 607 583
566 6 4 pml
606 630 631 607
567 6 4 pml
630 654 655 631
568 6 4 pml
654 504 505 655
569 6 4 pml
35 535 536 36
570 6 4 pml
535 559 560 536
571 6 4 pml
559 583 584 560
572 6 4 pml
583 607 608 584
573 6 4 pml
607 631 632 608
574 6 4 pml
631 655 656 632
575 6 4 pml
655 505 506 656
576 6 4 pml
36 536 537 37
577 6 4 pml
536 560 561 537
578 6 4 pml
560 584 585 561
579 6 4 pml
584 608 609 585
580 6 4 pml
608 632 633 609
581 6 4 pml
632 656 657 633
582 6 4 pml
656 506 507 657
583 6 4 pml
37 537 538 38
584 6 4 pml
537 561 562 538
585 6 4 pml
561 585 586 562
586 6 4 pml
585 609 610 586
587 6 4 pml
609 633 634 610
588 6 4 pml
633 657 658 634
589 6 4 pml
657 507 508 658
590 6 4 pml
38 538 539 39
591 6 4 pml
538 562 563 539
592 6 4 pml
562 586 587 563
593 6 4 pml
586 610 611 587
594 6 4 pml
610 634 635 611
595 6 4 pml
634 658 659 635
596 6 4 pml
658 508 509 659
597 6 4 pml
39 539 515 15
598 6 4 pml
539 563 514 515
599 6 4 pml
563 587 513 514
600 6 4 pml
587 611 512 513
601 6 4 pml
611 635 511 512
602 6 4 pml
635 659 510 511
603 6 4 pml
659 509 485 510
604 6 4 pml
40 64 698 697
605 6 4 pml
64 63 704 698
606 6 4 pml
63 62 710 704
607 6 4 pml
62 61 716 710
608 6 4 pml
61 60 722 716
609 6 4 pml
60 59 728 722
610 6 4 pml
59 58 734 728
611 6 4 pml
58 57 740 734
612 6 4 pml
57 56 746 740
613 6 4 pml
56 55 752 746
614 6 4 pml
55 54 758 752
615 6 4 pml
54 53 764 758
616 6 4 pml
53 52 770 764
617 6 4 pml
52 51 776 770
618 6 4 pml
51 50 782 776
619 6 4 pml
50 49 788 782
620 6 4 pml
49 48 794 788
621 6 4 pml
48 47 800 794
622 6 4 pml
47 46 806 800
623 6 4 pml
46 45 812 806
624 6 4 pml
45 44 818 812
625 6 4 pml
44 43 824 818
626 6 4 pml
43 42 830 824
627 6 4 pml
42 41 836 830
628 6 4 pml
41 15 661 836
629 6 4 pml
697 698 699 696
630 6 4 pml
698 704 705 699
631 6 4 pml
704 710 711 705
632 6 4 pml
710 716 717 711
633 6 4 pml
716 722 723 717
634 6 4 pml
722 728 729 723
635 6 4 pml
728 734 735 729
636 6 4 pml
734 740 741 735
637 6 4 pml
740 746 747 741
638 6 4 pml
746 752 753 747
639 6 4 pml
752 758 759 753
640 6 4 pml
758 764 765 759
641 6 4 pml
764 770 771 765
642 6 4 pml
770 776 777 771
643 6 4 pml
776 782 783 777
644 6 4 pml
782 788 789 783
645 6 4 pml
788 794 795 789
646 6 4 pml
794 800 801 795
647 6 4 pml
800 806 807 801
648 6 4 pml
806 812 813 807
649 6 4 pml
812 818 819 813
650 6 4 pml
818 824 825 819
651 6 4 pml
824 830 831 825
652 6 4 pml
830 836 837 831
653 6 4 pml
836 661 662 837
654 6 4 pml
696 699 700 695
655 6 4 pml
699 705 706 700
656 6 4 pml
705 711 712 706
657 6 4 pml
711 717 718 712
658 6 4 pml
717 723 724 718
659 6 4 pml
723 729 730 724
660 6 4 pml
729 735 736 730
661 6 4 pml
735 741 742 736
662 6 4 pml
741 747 748 742
663 6 4 pml
747 753 754 748
664 6 4 pml
753 759 760 754
665 6 4 pml
759 765 766 760
666 6 4 pml
765 771 772 766
667 6 4 pml
771 777 778 772
668 6 4 pml
777 783 784 778
669 6 4 pml
783 789 790 784
670 6 4 pml
789 795 796 790
671 6 4 pml
795 801 802 796
672 6 4 pml
801 807 808 802
673 6 4 pml
807 813 814 808
674 6 4 pml
813 819 820 814
675 6 4 pml
819 825 826 820
676 6 4 pml
825 831 832 826
677 6 4 pml
831 837 838 832
678 6 4 pml
837 662 663 838
679 6 4 pml
695 700 701 694
680 6 4 pml
700 706 707 701
681 6 4 pml
706 712 713 707
682 6 4 pml
712 718 719 713
683 6 4 pml
718 724 725 719
684 6 4 pml
724 730 731 725
685 6 4 pml
730 736 737 731
686 6 4 pml
736 742 743 737
687 6 4 pml
742 748 749 743
688 6 4 pml
748 754 755 749
689 6 4 pml
754 760 761 755
690 6 4 pml
760 766 767 761
691 6 4 pml
766 772 773 767
692 6 4 pml
772 778 779 773
693 6 4 pml
778 784 785 779
694 6 4 pml
784 790 791 785
695 6 4 pml
790 796 797 791
696 6 4 pml
796 802 803 797
697 6 4 pml
802 808 809 803
698 6 4 pml
808 814 815 809
699 6 4 pml
814 820 821 815
700 6 4 pml
820 826 827 821
701 6 4 pml
826 832 833 827
702 6 4 pml
832 838 839 833
703 6 4 pml
838 663 664 839
704 6 4 pml
694 701 702 693
705 6 4 pml
701 707 708 702
706 6 4 pml
707 713 714 708
707 6 4 pml
713 719 720 714
708 6 4 pml
719 725 726 720
709 6 4 pml
725 731 732 726
710 6 4 pml
731 737 738 732
711 6 4 pml
737 743 744 738
712 6 4 pml
743 749 750 744
713 6 4 pml
749 755 756 750
714 6 4 pml
755 761 762 756
715 6 4 pml
761 767 768 762
716 6 4 pml
767 773 774 768
717 6 4 pml
773 779 780 774
718 6 4 pml
779 785 786 780
719 6 4 pml
785 791 792 786
720 6 4 pml
791 797 798 792
721 6 4 pml
797 803 804 798
722 6 4 pml
803 809 810 804
723 6 4 pml
809 815 816 810
724 6 4 pml
815 821 822 816
725 6 4 pml
821 827 828 822
726 6 4 pml
827 833 834 828
727 6 4 pml
833 839 840 834
728 6 4 pml
839 664 665 840
729 6 4 pml
693 702 703 692
730 6 4 pml
702 708 709 703
731 6 4 pml
708 714 715 709
732 6 4 pml
714 720 721 715
733 6 4 pml
720 726 727 721
734 6 4 pml
726 732 733 727
735 6 4 pml
732 738 739 733
736 6 4 pml
738 744 745 739
737 6 4 pml
744 750 751 745
738 6 4 pml
750 756 757 751
739 6 4 pml
756 762 763 757
740 6 4 pml
762 768 769 763
741 6 4 pml
768 774 775 769
742 6 4 pml
774 780 781 775
743 6 4 pml
780 786 787 781
744 6 4 pml
786 792 793 787
745 6 4 pml
792 798 799 793
746 6 4 pml
798 804 805 799
747 6 4 pml
804 810 811 805
748 6 4 pml
810 816 817 811
749 6 4 pml
816 822 823 817
750 6 4 pml
822 828 829 823
751 6 4 pml
828 834 835 829
752 6 4 pml
834 840 841 835
753 6 4 pml
840 665 666 841
754 6 4 pml
692 703 691 667
755 6 4 pml
703 709 690 691
756 6 4 pml
709 715 689 690
757 6 4 pml
715 721 688 689
758 6 4 pml
721 727 687 688
759 6 4 pml
727 733 686 687
760 6 4 pml
733 739 685 686
761 6 4 pml
739 745 684 685
762 6 4 pml
745 751 683 684
763 6 4 pml
751 757 682 683
764 6 4 pml
757 763 681 682
765 6 4 pml
763 769 680 681
766 6 4 pml
769 775 679 680
767 6 4 pml
775 781 678 679
768 6 4 pml
781 787 677 678
769 6 4 pml
787 793 676 677
770 6 4 pml
793 799 675 676
771 6 4 pml
799 805 674 675
772 6 4 pml
805 811 673 674
773 6 4 pml
811 817 672 673
774 6 4 pml
817 823 671 672
775 6 4 pml
823 829 670 671
776 6 4 pml
829 835 669 670
777 6 4 pml
835 841 668 669
778 6 4 pml
841 666 660 668
779 6 4 pml
15 515 855 661
780 6 4 pml
515 514 861 855
781 6 4 pml
514 513 867 861
782 6 4 pml
513 512 873 867
783 6 4 pml
512 511 879 873
784 6 4 pml
511 510 885 879
785 6 4 pml
510 485 843 885
786 6 4 pml
661 855 856 662
787 6 4 pml
855 861 862 856
788 6 4 pml
861 867 868 862
789 6 4 pml
867 873 874 868
790 6 4 pml
873 879 880 874
791 6 4 pml
879 885 886 880
792 6 4 pml
885 843 844 886
793 6 4 pml
662 856 857 663
794 6 4 pml
856 862 863 857
795 6 4 pml
862 868 869 863
796 6 4 pml
868 874 875 869
797 6 4 pml
874 880 881 875
798 6 4 pml
880 886 887 881
799 6 4 pml
886 844 845 887
800 6 4 pml
663 857 858 664
801 6 4 pml
857 863 864 858
802 6 4 pml
863 869 870 864
803 6 4 pml
869 875 876 870
804 6 4 pml
875 881 882 876
805 6 4 pml
881 887 888 882
806 6 4 pml
887 845 846 888
807 6 4 pml
664 858 859 665
808 6 4 pml
858 864 865 859
809 6 4 pml
864 870 871 865
810 6 4 pml
870 876 877 871
811 6 4 pml
876 882 883 877
812 6 4 pml
882 888 889 883
813 6 4 pml
888 846 847 889
814 6 4 pml
665 859 860 666
815 6 4 pml
859 865 866 860
816 6 4 pml
865 871 872 866
817 6 4 pml
871 877 878 872
818 6 4 pml
877 883 884 878
819 6 4 pml
883 889 890 884
820 6 4 pml
889 847 848 890
821 6 4 pml
666 860 854 660
822 6 4 pml
860 866 853 854
823 6 4 pml
866 872 852 853
824 6 4 pml
872 878 851 852
825 6 4 pml
878 884 850 851
826 6 4 pml
884 890 849 850
827 6 4 pml
890 848 842 849

[1D Elements]
#ElemNr  ElemType  NrOfNodes  Level
#Node1 Node2 ... NodeNrOfNodes
848 100 2 abc
2 16
849 100 2 abc
16 17
850 100 2 abc
17 18
851 100 2 abc
18 19
852 100 2 abc
19 20
853 100 2 abc
20 21
854 100 2 abc
21 22
855 100 2 abc
22 23
856 100 2 abc
23 24
857 100 2 abc
24 25
858 100 2 abc
25 26
859 100 2 abc
26 27
860 100 2 abc
27 28
861 100 2 abc
28 29
862 100 2 abc
29 30
863 100 2 abc
30 31
864 100 2 abc
31 32
865 100 2 abc
32 33
866 100 2 abc
33 34
867 100 2 abc
34 35
868 100 2 abc
35 36
869 100 2 abc
36 37
870 100 2 abc
37 38
871 100 2 abc
38 39
872 100 2 abc
39 15
873 100 2 abc
15 41
874 100 2 abc
41 42
875 100 2 abc
42 43
876 100 2 abc
43 44
877 100 2 abc
44 45
878 100 2 abc
45 46
879 100 2 abc
46 47
880 100 2 abc
47 48
881 100 2 abc
48 49
882 100 2 abc
49 50
883 100 2 abc
50 51
884 100 2 abc
51 52
885 100 2 abc
52 53
886 100 2 abc
53 54
887 100 2 abc
54 55
888 100 2 abc
55 56
889 100 2 abc
56 57
890 100 2 abc
57 58
891 100 2 abc
58 59
892 100 2 abc
59 60
893 100 2 abc
60 61
894 100 2 abc
61 62
895 100 2 abc
62 63
896 100 2 abc
63 64
897 100 2 abc
64 40
828 100 2 excite
1 78
829 100 2 excite
78 79
830 100 2 excite
79 80
831 100 2 excite
80 81
832 100 2 excite
81 82
833 100 2 excite
82 83
834 100 2 excite
83 84
835 100 2 excite
84 85
836 100 2 excite
85 86
837 100 2 excite
86 87
838 100 2 excite
87 88
839 100 2 excite
88 89
840 100 2 excite
89 90
841 100 2 excite
90 91
842 100 2 excite
91 92
843 100 2 excite
92 93
844 100 2 excite
93 94
845 100 2 excite
94 95
846 100 2 excite
95 96
847 100 2 excite
96 65

[Node BC]
#NodeNr Level
       1 botLine
       2 botLine
       3 botLine
       4 botLine
       5 botLine
       6 botLine
       7 botLine
       8 botLine
       9 botLine
      10 botLine
      11 botLine
      12 botLine
      13 botLine
      14 botLine

[Save Nodes]
#NodeNr Level

[Save Elements]
#ElemNr Level

