<?xml version="1.0"?>

<cfsInfo status="finished" infoWriteCounter="5" infoRejectCounter="22" index="1">
  <summary>
    <timer wall="0" cpu="0.24105" calls="1"/>
    <memory final="101420" peak="101420"/>
  </summary>
  <header id="">
    <environment started="2015-Jan-28 17:50:21" host="eamc061"/>
    <progOpts problem="output" parameterFile="/home/fwein/code/shared_test/TESTSUIT/Optimization/Static/output/output.xml" schemaPath="/home/fwein/code/shared/share/xml" meshFile="" logConfFile="" detailed="no" MKL_NUM_THREADS="1">
      <cfs version="15.01" name="Maximale Verwirrung" build="Release" svn_revision="13478 modified"/>
    </progOpts>
    <domain dimensions="2" elements="400" nodes="441">
      <coordinateSystems>
        <system name="default"/>
      </coordinateSystems>
      <regions>
        <region name="mech" id="0" type="volume" regular="yes" hom="yes" nodes="441" elems="400" isQuadratic="no"/>
      </regions>
      <namedNodes>
        <nodes name="south" count="21"/>
        <nodes name="north" count="21"/>
        <nodes name="west" count="21"/>
        <nodes name="east" count="21"/>
        <nodes name="left_lower" count="1" coord="(0,0)"/>
        <nodes name="right_lower" count="1" coord="(1,0)"/>
        <nodes name="left_upper" count="1" coord="(0,1)"/>
        <nodes name="right_upper" count="1" coord="(1,1)"/>
        <nodes name="load" count="1" coord="(0,0.5)"/>
        <nodes name="out" count="1" coord="(1,0.5)"/>
      </namedNodes>
      <namedElements/>
    </domain>
  </header>
  <calculation>
    <process/>
  </calculation>
  <sequenceStep>
    <!-- === SEQUENCE STEP ===-->
    <static/>
    <PDE>
      <mechanic>
        <header>
          <region name="mech" damping="none"/>
          <integrators>
            <matrixBiLinearForms>
              <bilinearForm integrator="LinElastInt" BOp="StrainOperator2D" region="mech">
                <row pde="mechanic" functionId="0" result="mechDisplacement"/>
                <column pde="mechanic" functionId="0" result="mechDisplacement"/>
                <destination feMatrix="stiffness" feMatrixMapped="system" feSecondMatrix="no_fe_matrix" feSecondMatrixFac="0.0  "/>
                <attributes entryType="RealPart" counterPart="no" symmetric="yes" solutionDependent="no" updatedGeo="no"/>
              </bilinearForm>
              <bilinearForm integrator="SingleEntryBiLinInt" region="">
                <row pde="mechanic" functionId="0" result="mechDisplacement"/>
                <column pde="mechanic" functionId="0" result="mechDisplacement"/>
                <destination feMatrix="stiffness" feMatrixMapped="system" feSecondMatrix="no_fe_matrix" feSecondMatrixFac="0.0  "/>
                <attributes entryType="RealPart" counterPart="no" symmetric="yes" solutionDependent="no" updatedGeo="no"/>
              </bilinearForm>
              <bilinearForm integrator="SingleEntryBiLinInt" region="">
                <row pde="mechanic" functionId="0" result="mechDisplacement"/>
                <column pde="mechanic" functionId="0" result="mechDisplacement"/>
                <destination feMatrix="stiffness" feMatrixMapped="system" feSecondMatrix="no_fe_matrix" feSecondMatrixFac="0.0  "/>
                <attributes entryType="RealPart" counterPart="no" symmetric="no" solutionDependent="no" updatedGeo="no"/>
              </bilinearForm>
            </matrixBiLinearForms>
            <rhsLinearForms>
              <linearForm integrator="NodalForceInt" region="">
                <entities name="load" size="1" region="no_region"/>
                <row pde="mechanic" result="mechDisplacement" solutionDependent="no"/>
              </linearForm>
            </rhsLinearForms>
          </integrators>
        </header>
        <material name="99lines">
          <regionList>
            <region name="mech"/>
          </regionList>
          <property name="MechanicStiffnessTensor">
            <tensor dim1="6" dim2="6">
              <real>
                 1.346154e+00  5.769231e-01  5.769231e-01  0.000000e+00  0.000000e+00  0.000000e+00
                 5.769231e-01  1.346154e+00  5.769231e-01  0.000000e+00  0.000000e+00  0.000000e+00
                 5.769231e-01  5.769231e-01  1.346154e+00  0.000000e+00  0.000000e+00  0.000000e+00
                 0.000000e+00  0.000000e+00  0.000000e+00  3.846154e-01  0.000000e+00  0.000000e+00
                 0.000000e+00  0.000000e+00  0.000000e+00  0.000000e+00  3.846154e-01  0.000000e+00
                 0.000000e+00  0.000000e+00  0.000000e+00  0.000000e+00  0.000000e+00  3.846154e-01
              </real>
            </tensor>
          </property>
          <property name="Mechanic_Emodulus" value="1"/>
          <property name="Mechanic_PoissonRation" value="0.3"/>
          <property name="Mechanic_LameMu" value="(0.38462,0)"/>
          <property name="Mechanic_LameLambda" value="(0.57692,0)"/>
          <property name="Rayleigh_Alpha" value="0.05"/>
          <property name="Rayleigh_Beta" value="0.002"/>
          <property name="Rayleigh_Frequency" value="1000"/>
        </material>
        <!-- List of defined Spaces-->
        <feSpaces>
          <mechDisplacement>
            <h1Nodal>
              <regionList>
                <mech/>
                <default order="1"/>
              </regionList>
            </h1Nodal>
          </mechDisplacement>
        </feSpaces>
        <feFunctions>
          <mechDisplacement/>
          <homDirichletBC>
            <nodeList name="left_lower" dofs="x y"/>
            <nodeList name="left_upper" dofs="x y"/>
          </homDirichletBC>
          <inhomDirichletBC/>
        </feFunctions>
      </mechanic>
    </PDE>
    <OLAS>
      <mechanic>
        <setup idbcHandling="elimination" staticCondensation="no">
          <!-- List of registered FeFunctions-->
          <feFunctions totalNumEqns="878" totalNumFreeEqns="878" totalNumDirichlet="0">
            <function id="0" name="mechDisplacement" numEqns="878" lastFreeEqn="878" numDirichlet="0">
              <usedInBlocks>
                <block id="0"/>
              </usedInBlocks>
            </function>
          </feFunctions>
          <!-- List of SBM-blocks-->
          <sbmBlocks>
            <block id="0" size="878" lastFreeIndex="878"/>
          </sbmBlocks>
          <setupTime wall="0" cpu="0.003482" calls="1"/>
          <!-- List of defined matrices-->
          <matrices>
            <!-- Memory is in MByte-->
            <system totalNumRows="878" totalNumCols="878" totalNumNonZeros="14828" totalFillLevelPerCent="1.9235" totalMemory="0.11313">
              <matrix blockRow="0" blockCol="0" storageType="sparseSym" numRows="878" numCols="878" numNonZeros="14828" fillLevelPerCent="1.9235" memory="0.11313" upperBandWidth="875" lowerBandWidth="875" avgBandWidth="221" symCounterPart="no" orderingType="Metis"/>
            </system>
          </matrices>
        </setup>
        <solver>
          <cholmod>
            <header>
              <parameters>
                <factorization>
                  <nmethods default="0"/>
                  <postorder default="1"/>
                  <dbound default="0"/>
                </factorization>
                <supernodal>
                  <method default="auto"/>
                  <switch default="40"/>
                </supernodal>
                <output>
                  <level default="3"/>
                  <precise default="0"/>
                </output>
              </parameters>
            </header>
            <summary>
              <setup>
                <timer wall="0" cpu="0.017294" calls="11"/>
              </setup>
              <solve>
                <timer wall="0" cpu="0.001061" calls="22"/>
              </solve>
            </summary>
            <process>
              <setup selected_factorization_method="1" ll_flop_count="1.0106e+06" nz_in_L="26421" nz_in_triA="7853" memory_usage="" memory_inuse="" malloc_count="" nrealloc_col="0" nrealloc_factor="0" ndbounds_hit="0">
                <method id="1" lnz="26421" fl="1.0106e+06"/>
              </setup>
              <solver/>
            </process>
          </cholmod>
        </solver>
        <precond>
          <idPrecond>
            <summary>
              <setup>
                <timer wall="0" cpu="6e-06" calls="11"/>
              </setup>
              <precond>
                <timer wall="0" cpu="0" calls="0"/>
              </precond>
            </summary>
          </idPrecond>
        </precond>
        <process>
          <solver solutionIsOkay="yes"/>
        </process>
      </mechanic>
    </OLAS>
    <analysis>
      <summary>
        <assemble>
          <timer wall="0" cpu="0.053872" calls="11"/>
        </assemble>
      </summary>
    </analysis>
  </sequenceStep>
  <optimization haltopt_directory="/home/fwein/code/shared_test/TESTSUIT/Optimization/Static/output">
    <header homogenization="no" material="mechanic">
      <objective type="output" linear="no" task="minimize"/>
      <constraints>
        <constraint type="volume" linear="yes" mode="constraint" design="default" bound="upperBound" bound_value="0.5" delta_logging="no" excitation="0"/>
      </constraints>
      <regularization>
        <filter target="density" type="maxEdge" value="1.2" contribution="linear" density="standard" periodicBCs="no" avg_radius="0.06" avg_neighbors="3.8">
          <functions>
            <objective name="output" filtered="yes"/>
            <constraint name="volume" filtered="yes"/>
          </functions>
          <timer wall="0" cpu="0.000406" calls="1"/>
        </filter>
      </regularization>
      <designSpace pamping="0">
        <transferFunctions>
          <transferFunction type="simp" application="mech" design="density" param="3"/>
        </transferFunctions>
        <designVariables optimizationVariables="400" modelVariables="400" modelElements="400">
          <design type="density" upperBound="1" lowerBound="0.001" physicalLowerBound="1e-09"/>
        </designVariables>
        <regions>
          <region name="mech" elements="400" bimaterial="-"/>
        </regions>
      </designSpace>
      <scpip>
        <icntl i1="1" i2="1" i3="10" i4="1" i5="10" i6="0" i7="0" i8="0" i9="0" i10="0" i11="0" i12="0" i13="1"/>
        <rcntl r1="1e-07" r2="1e+30" r3="1e+30" r4="0.01" r5="0.01" r6="0.01" r7="0"/>
      </scpip>
    </header>
    <commit mode="both_cases" stride="1"/>
    <designSpace/>
    <optimizer>
      <summary>
        <timer wall="0" cpu="0.098039" calls="100"/>
      </summary>
    </optimizer>
    <process>
      <iteration number="0" output="6.1327" change="0.5" volume="0.5" max_f_grad="3.7231"/>
      <iteration number="1" output="0.00016187" change="0.44955" volume="0.24019" max_f_grad="0.0019777"/>
      <iteration number="2" output="4.1662e-06" change="0.44955" volume="0.23302" max_f_grad="0.0011046"/>
      <iteration number="3" output="0.42904" change="0.26587" volume="0.33286" max_f_grad="0.96965"/>
      <iteration number="4" output="8.5552e-09" change="0.36189" volume="0.2724" max_f_grad="9.978e-06"/>
      <iteration number="5" output="-0.0098841" change="0.12655" volume="0.32461" max_f_grad="0.062412"/>
      <iteration number="6" output="-0.94206" change="0.37097" volume="0.30487" max_f_grad="0.83739"/>
      <iteration number="7" output="-2.5432" change="0.55039" volume="0.34629" max_f_grad="0.96369"/>
      <iteration number="8" output="-4.8989" change="0.34489" volume="0.38694" max_f_grad="0.60654"/>
      <iteration number="9" output="-7.3014" change="0.26969" volume="0.42669" max_f_grad="0.92163"/>
      <iteration number="10" output="-8.7376" change="0.24456" volume="0.46086" max_f_grad="1.3458"/>
    </process>
    <summary problem="maximum number of iterations reached (10)">
      <break converged="no">
        <reason msg="SCPIP: maximum number of iterations reached (10)"/>
      </break>
    </summary>
  </optimization>
</cfsInfo>