[Info]
Version 1
Dimension 2
NumNodes 289
Num3DElements 0
Num2DElements 256
Num1DElements 0
NumNodeBC 76
NumSaveNodes 0
NumSaveElements 0
Num 2d-line      : 0
Num 2d-line,quad : 0
Num 3d-line      : 0
Num 3d-line,quad : 0
Num triangle     : 0
Num triangle,quad: 0
Num quadr        : 256
Num quadr,quad   : 0
Num tetra        : 0
Num tetra,quad   : 0
Num brick        : 0
Num brick,quad   : 0
Num pyramid      : 0
Num pyramid,quad : 0
Num wedge        : 0
Num wedge,quad   : 0

[Nodes]
#NodeNr x-coord y-coord z-coord
1  0.0  0.0  0.0
2  0.0625  0.0  0.0
3  0.125  0.0  0.0
4  0.1875  0.0  0.0
5  0.25  0.0  0.0
6  0.3125  0.0  0.0
7  0.375  0.0  0.0
8  0.4375  0.0  0.0
9  0.5  0.0  0.0
10  0.5625  0.0  0.0
11  0.625  0.0  0.0
12  0.6875  0.0  0.0
13  0.75  0.0  0.0
14  0.8125  0.0  0.0
15  0.875  0.0  0.0
16  0.9375  0.0  0.0
17  1.0  0.0  0.0
18  0.0  0.0625  0.0
19  0.0625  0.0625  0.0
20  0.125  0.0625  0.0
21  0.1875  0.0625  0.0
22  0.25  0.0625  0.0
23  0.3125  0.0625  0.0
24  0.375  0.0625  0.0
25  0.4375  0.0625  0.0
26  0.5  0.0625  0.0
27  0.5625  0.0625  0.0
28  0.625  0.0625  0.0
29  0.6875  0.0625  0.0
30  0.75  0.0625  0.0
31  0.8125  0.0625  0.0
32  0.875  0.0625  0.0
33  0.9375  0.0625  0.0
34  1.0  0.0625  0.0
35  0.0  0.125  0.0
36  0.0625  0.125  0.0
37  0.125  0.125  0.0
38  0.1875  0.125  0.0
39  0.25  0.125  0.0
40  0.3125  0.125  0.0
41  0.375  0.125  0.0
42  0.4375  0.125  0.0
43  0.5  0.125  0.0
44  0.5625  0.125  0.0
45  0.625  0.125  0.0
46  0.6875  0.125  0.0
47  0.75  0.125  0.0
48  0.8125  0.125  0.0
49  0.875  0.125  0.0
50  0.9375  0.125  0.0
51  1.0  0.125  0.0
52  0.0  0.1875  0.0
53  0.0625  0.1875  0.0
54  0.125  0.1875  0.0
55  0.1875  0.1875  0.0
56  0.25  0.1875  0.0
57  0.3125  0.1875  0.0
58  0.375  0.1875  0.0
59  0.4375  0.1875  0.0
60  0.5  0.1875  0.0
61  0.5625  0.1875  0.0
62  0.625  0.1875  0.0
63  0.6875  0.1875  0.0
64  0.75  0.1875  0.0
65  0.8125  0.1875  0.0
66  0.875  0.1875  0.0
67  0.9375  0.1875  0.0
68  1.0  0.1875  0.0
69  0.0  0.25  0.0
70  0.0625  0.25  0.0
71  0.125  0.25  0.0
72  0.1875  0.25  0.0
73  0.25  0.25  0.0
74  0.3125  0.25  0.0
75  0.375  0.25  0.0
76  0.4375  0.25  0.0
77  0.5  0.25  0.0
78  0.5625  0.25  0.0
79  0.625  0.25  0.0
80  0.6875  0.25  0.0
81  0.75  0.25  0.0
82  0.8125  0.25  0.0
83  0.875  0.25  0.0
84  0.9375  0.25  0.0
85  1.0  0.25  0.0
86  0.0  0.3125  0.0
87  0.0625  0.3125  0.0
88  0.125  0.3125  0.0
89  0.1875  0.3125  0.0
90  0.25  0.3125  0.0
91  0.3125  0.3125  0.0
92  0.375  0.3125  0.0
93  0.4375  0.3125  0.0
94  0.5  0.3125  0.0
95  0.5625  0.3125  0.0
96  0.625  0.3125  0.0
97  0.6875  0.3125  0.0
98  0.75  0.3125  0.0
99  0.8125  0.3125  0.0
100  0.875  0.3125  0.0
101  0.9375  0.3125  0.0
102  1.0  0.3125  0.0
103  0.0  0.375  0.0
104  0.0625  0.375  0.0
105  0.125  0.375  0.0
106  0.1875  0.375  0.0
107  0.25  0.375  0.0
108  0.3125  0.375  0.0
109  0.375  0.375  0.0
110  0.4375  0.375  0.0
111  0.5  0.375  0.0
112  0.5625  0.375  0.0
113  0.625  0.375  0.0
114  0.6875  0.375  0.0
115  0.75  0.375  0.0
116  0.8125  0.375  0.0
117  0.875  0.375  0.0
118  0.9375  0.375  0.0
119  1.0  0.375  0.0
120  0.0  0.4375  0.0
121  0.0625  0.4375  0.0
122  0.125  0.4375  0.0
123  0.1875  0.4375  0.0
124  0.25  0.4375  0.0
125  0.3125  0.4375  0.0
126  0.375  0.4375  0.0
127  0.4375  0.4375  0.0
128  0.5  0.4375  0.0
129  0.5625  0.4375  0.0
130  0.625  0.4375  0.0
131  0.6875  0.4375  0.0
132  0.75  0.4375  0.0
133  0.8125  0.4375  0.0
134  0.875  0.4375  0.0
135  0.9375  0.4375  0.0
136  1.0  0.4375  0.0
137  0.0  0.5  0.0
138  0.0625  0.5  0.0
139  0.125  0.5  0.0
140  0.1875  0.5  0.0
141  0.25  0.5  0.0
142  0.3125  0.5  0.0
143  0.375  0.5  0.0
144  0.4375  0.5  0.0
145  0.5  0.5  0.0
146  0.5625  0.5  0.0
147  0.625  0.5  0.0
148  0.6875  0.5  0.0
149  0.75  0.5  0.0
150  0.8125  0.5  0.0
151  0.875  0.5  0.0
152  0.9375  0.5  0.0
153  1.0  0.5  0.0
154  0.0  0.5625  0.0
155  0.0625  0.5625  0.0
156  0.125  0.5625  0.0
157  0.1875  0.5625  0.0
158  0.25  0.5625  0.0
159  0.3125  0.5625  0.0
160  0.375  0.5625  0.0
161  0.4375  0.5625  0.0
162  0.5  0.5625  0.0
163  0.5625  0.5625  0.0
164  0.625  0.5625  0.0
165  0.6875  0.5625  0.0
166  0.75  0.5625  0.0
167  0.8125  0.5625  0.0
168  0.875  0.5625  0.0
169  0.9375  0.5625  0.0
170  1.0  0.5625  0.0
171  0.0  0.625  0.0
172  0.0625  0.625  0.0
173  0.125  0.625  0.0
174  0.1875  0.625  0.0
175  0.25  0.625  0.0
176  0.3125  0.625  0.0
177  0.375  0.625  0.0
178  0.4375  0.625  0.0
179  0.5  0.625  0.0
180  0.5625  0.625  0.0
181  0.625  0.625  0.0
182  0.6875  0.625  0.0
183  0.75  0.625  0.0
184  0.8125  0.625  0.0
185  0.875  0.625  0.0
186  0.9375  0.625  0.0
187  1.0  0.625  0.0
188  0.0  0.6875  0.0
189  0.0625  0.6875  0.0
190  0.125  0.6875  0.0
191  0.1875  0.6875  0.0
192  0.25  0.6875  0.0
193  0.3125  0.6875  0.0
194  0.375  0.6875  0.0
195  0.4375  0.6875  0.0
196  0.5  0.6875  0.0
197  0.5625  0.6875  0.0
198  0.625  0.6875  0.0
199  0.6875  0.6875  0.0
200  0.75  0.6875  0.0
201  0.8125  0.6875  0.0
202  0.875  0.6875  0.0
203  0.9375  0.6875  0.0
204  1.0  0.6875  0.0
205  0.0  0.75  0.0
206  0.0625  0.75  0.0
207  0.125  0.75  0.0
208  0.1875  0.75  0.0
209  0.25  0.75  0.0
210  0.3125  0.75  0.0
211  0.375  0.75  0.0
212  0.4375  0.75  0.0
213  0.5  0.75  0.0
214  0.5625  0.75  0.0
215  0.625  0.75  0.0
216  0.6875  0.75  0.0
217  0.75  0.75  0.0
218  0.8125  0.75  0.0
219  0.875  0.75  0.0
220  0.9375  0.75  0.0
221  1.0  0.75  0.0
222  0.0  0.8125  0.0
223  0.0625  0.8125  0.0
224  0.125  0.8125  0.0
225  0.1875  0.8125  0.0
226  0.25  0.8125  0.0
227  0.3125  0.8125  0.0
228  0.375  0.8125  0.0
229  0.4375  0.8125  0.0
230  0.5  0.8125  0.0
231  0.5625  0.8125  0.0
232  0.625  0.8125  0.0
233  0.6875  0.8125  0.0
234  0.75  0.8125  0.0
235  0.8125  0.8125  0.0
236  0.875  0.8125  0.0
237  0.9375  0.8125  0.0
238  1.0  0.8125  0.0
239  0.0  0.875  0.0
240  0.0625  0.875  0.0
241  0.125  0.875  0.0
242  0.1875  0.875  0.0
243  0.25  0.875  0.0
244  0.3125  0.875  0.0
245  0.375  0.875  0.0
246  0.4375  0.875  0.0
247  0.5  0.875  0.0
248  0.5625  0.875  0.0
249  0.625  0.875  0.0
250  0.6875  0.875  0.0
251  0.75  0.875  0.0
252  0.8125  0.875  0.0
253  0.875  0.875  0.0
254  0.9375  0.875  0.0
255  1.0  0.875  0.0
256  0.0  0.9375  0.0
257  0.0625  0.9375  0.0
258  0.125  0.9375  0.0
259  0.1875  0.9375  0.0
260  0.25  0.9375  0.0
261  0.3125  0.9375  0.0
262  0.375  0.9375  0.0
263  0.4375  0.9375  0.0
264  0.5  0.9375  0.0
265  0.5625  0.9375  0.0
266  0.625  0.9375  0.0
267  0.6875  0.9375  0.0
268  0.75  0.9375  0.0
269  0.8125  0.9375  0.0
270  0.875  0.9375  0.0
271  0.9375  0.9375  0.0
272  1.0  0.9375  0.0
273  0.0  1.0  0.0
274  0.0625  1.0  0.0
275  0.125  1.0  0.0
276  0.1875  1.0  0.0
277  0.25  1.0  0.0
278  0.3125  1.0  0.0
279  0.375  1.0  0.0
280  0.4375  1.0  0.0
281  0.5  1.0  0.0
282  0.5625  1.0  0.0
283  0.625  1.0  0.0
284  0.6875  1.0  0.0
285  0.75  1.0  0.0
286  0.8125  1.0  0.0
287  0.875  1.0  0.0
288  0.9375  1.0  0.0
289  1.0  1.0  0.0

[1D Elements]
#ElemNr  ElemType  NrOfNodes  Level
#Node1 Node2 ... NodeNrOfNodes

[2D Elements]
#ElemNr  ElemType  NrOfNodes  Level
#Node1 Node2 ... NodeNrOfNodes
1 6 4 mech
1 2 19 18
2 6 4 mech
2 3 20 19
3 6 4 mech
3 4 21 20
4 6 4 mech
4 5 22 21
5 6 4 mech
5 6 23 22
6 6 4 mech
6 7 24 23
7 6 4 mech
7 8 25 24
8 6 4 mech
8 9 26 25
9 6 4 mech
9 10 27 26
10 6 4 mech
10 11 28 27
11 6 4 mech
11 12 29 28
12 6 4 mech
12 13 30 29
13 6 4 mech
13 14 31 30
14 6 4 mech
14 15 32 31
15 6 4 mech
15 16 33 32
16 6 4 mech
16 17 34 33
17 6 4 mech
18 19 36 35
18 6 4 mech
19 20 37 36
19 6 4 mech
20 21 38 37
20 6 4 mech
21 22 39 38
21 6 4 mech
22 23 40 39
22 6 4 mech
23 24 41 40
23 6 4 mech
24 25 42 41
24 6 4 mech
25 26 43 42
25 6 4 mech
26 27 44 43
26 6 4 mech
27 28 45 44
27 6 4 mech
28 29 46 45
28 6 4 mech
29 30 47 46
29 6 4 mech
30 31 48 47
30 6 4 mech
31 32 49 48
31 6 4 mech
32 33 50 49
32 6 4 mech
33 34 51 50
33 6 4 mech
35 36 53 52
34 6 4 mech
36 37 54 53
35 6 4 mech
37 38 55 54
36 6 4 mech
38 39 56 55
37 6 4 mech
39 40 57 56
38 6 4 mech
40 41 58 57
39 6 4 mech
41 42 59 58
40 6 4 mech
42 43 60 59
41 6 4 mech
43 44 61 60
42 6 4 mech
44 45 62 61
43 6 4 mech
45 46 63 62
44 6 4 mech
46 47 64 63
45 6 4 mech
47 48 65 64
46 6 4 mech
48 49 66 65
47 6 4 mech
49 50 67 66
48 6 4 mech
50 51 68 67
49 6 4 mech
52 53 70 69
50 6 4 mech
53 54 71 70
51 6 4 mech
54 55 72 71
52 6 4 mech
55 56 73 72
53 6 4 mech
56 57 74 73
54 6 4 mech
57 58 75 74
55 6 4 mech
58 59 76 75
56 6 4 mech
59 60 77 76
57 6 4 mech
60 61 78 77
58 6 4 mech
61 62 79 78
59 6 4 mech
62 63 80 79
60 6 4 mech
63 64 81 80
61 6 4 mech
64 65 82 81
62 6 4 mech
65 66 83 82
63 6 4 mech
66 67 84 83
64 6 4 mech
67 68 85 84
65 6 4 mech
69 70 87 86
66 6 4 mech
70 71 88 87
67 6 4 mech
71 72 89 88
68 6 4 mech
72 73 90 89
69 6 4 mech
73 74 91 90
70 6 4 mech
74 75 92 91
71 6 4 mech
75 76 93 92
72 6 4 mech
76 77 94 93
73 6 4 mech
77 78 95 94
74 6 4 mech
78 79 96 95
75 6 4 mech
79 80 97 96
76 6 4 mech
80 81 98 97
77 6 4 mech
81 82 99 98
78 6 4 mech
82 83 100 99
79 6 4 mech
83 84 101 100
80 6 4 mech
84 85 102 101
81 6 4 mech
86 87 104 103
82 6 4 mech
87 88 105 104
83 6 4 mech
88 89 106 105
84 6 4 mech
89 90 107 106
85 6 4 mech
90 91 108 107
86 6 4 mech
91 92 109 108
87 6 4 mech
92 93 110 109
88 6 4 mech
93 94 111 110
89 6 4 mech
94 95 112 111
90 6 4 mech
95 96 113 112
91 6 4 mech
96 97 114 113
92 6 4 mech
97 98 115 114
93 6 4 mech
98 99 116 115
94 6 4 mech
99 100 117 116
95 6 4 mech
100 101 118 117
96 6 4 mech
101 102 119 118
97 6 4 mech
103 104 121 120
98 6 4 mech
104 105 122 121
99 6 4 mech
105 106 123 122
100 6 4 mech
106 107 124 123
101 6 4 mech
107 108 125 124
102 6 4 mech
108 109 126 125
103 6 4 mech
109 110 127 126
104 6 4 mech
110 111 128 127
105 6 4 mech
111 112 129 128
106 6 4 mech
112 113 130 129
107 6 4 mech
113 114 131 130
108 6 4 mech
114 115 132 131
109 6 4 mech
115 116 133 132
110 6 4 mech
116 117 134 133
111 6 4 mech
117 118 135 134
112 6 4 mech
118 119 136 135
113 6 4 mech
120 121 138 137
114 6 4 mech
121 122 139 138
115 6 4 mech
122 123 140 139
116 6 4 mech
123 124 141 140
117 6 4 mech
124 125 142 141
118 6 4 mech
125 126 143 142
119 6 4 mech
126 127 144 143
120 6 4 mech
127 128 145 144
121 6 4 mech
128 129 146 145
122 6 4 mech
129 130 147 146
123 6 4 mech
130 131 148 147
124 6 4 mech
131 132 149 148
125 6 4 mech
132 133 150 149
126 6 4 mech
133 134 151 150
127 6 4 mech
134 135 152 151
128 6 4 mech
135 136 153 152
129 6 4 mech
137 138 155 154
130 6 4 mech
138 139 156 155
131 6 4 mech
139 140 157 156
132 6 4 mech
140 141 158 157
133 6 4 mech
141 142 159 158
134 6 4 mech
142 143 160 159
135 6 4 mech
143 144 161 160
136 6 4 mech
144 145 162 161
137 6 4 mech
145 146 163 162
138 6 4 mech
146 147 164 163
139 6 4 mech
147 148 165 164
140 6 4 mech
148 149 166 165
141 6 4 mech
149 150 167 166
142 6 4 mech
150 151 168 167
143 6 4 mech
151 152 169 168
144 6 4 mech
152 153 170 169
145 6 4 mech
154 155 172 171
146 6 4 mech
155 156 173 172
147 6 4 mech
156 157 174 173
148 6 4 mech
157 158 175 174
149 6 4 mech
158 159 176 175
150 6 4 mech
159 160 177 176
151 6 4 mech
160 161 178 177
152 6 4 mech
161 162 179 178
153 6 4 mech
162 163 180 179
154 6 4 mech
163 164 181 180
155 6 4 mech
164 165 182 181
156 6 4 mech
165 166 183 182
157 6 4 mech
166 167 184 183
158 6 4 mech
167 168 185 184
159 6 4 mech
168 169 186 185
160 6 4 mech
169 170 187 186
161 6 4 mech
171 172 189 188
162 6 4 mech
172 173 190 189
163 6 4 mech
173 174 191 190
164 6 4 mech
174 175 192 191
165 6 4 mech
175 176 193 192
166 6 4 mech
176 177 194 193
167 6 4 mech
177 178 195 194
168 6 4 mech
178 179 196 195
169 6 4 mech
179 180 197 196
170 6 4 mech
180 181 198 197
171 6 4 mech
181 182 199 198
172 6 4 mech
182 183 200 199
173 6 4 mech
183 184 201 200
174 6 4 mech
184 185 202 201
175 6 4 mech
185 186 203 202
176 6 4 mech
186 187 204 203
177 6 4 mech
188 189 206 205
178 6 4 mech
189 190 207 206
179 6 4 mech
190 191 208 207
180 6 4 mech
191 192 209 208
181 6 4 mech
192 193 210 209
182 6 4 mech
193 194 211 210
183 6 4 mech
194 195 212 211
184 6 4 mech
195 196 213 212
185 6 4 mech
196 197 214 213
186 6 4 mech
197 198 215 214
187 6 4 mech
198 199 216 215
188 6 4 mech
199 200 217 216
189 6 4 mech
200 201 218 217
190 6 4 mech
201 202 219 218
191 6 4 mech
202 203 220 219
192 6 4 mech
203 204 221 220
193 6 4 mech
205 206 223 222
194 6 4 mech
206 207 224 223
195 6 4 mech
207 208 225 224
196 6 4 mech
208 209 226 225
197 6 4 mech
209 210 227 226
198 6 4 mech
210 211 228 227
199 6 4 mech
211 212 229 228
200 6 4 mech
212 213 230 229
201 6 4 mech
213 214 231 230
202 6 4 mech
214 215 232 231
203 6 4 mech
215 216 233 232
204 6 4 mech
216 217 234 233
205 6 4 mech
217 218 235 234
206 6 4 mech
218 219 236 235
207 6 4 mech
219 220 237 236
208 6 4 mech
220 221 238 237
209 6 4 mech
222 223 240 239
210 6 4 mech
223 224 241 240
211 6 4 mech
224 225 242 241
212 6 4 mech
225 226 243 242
213 6 4 mech
226 227 244 243
214 6 4 mech
227 228 245 244
215 6 4 mech
228 229 246 245
216 6 4 mech
229 230 247 246
217 6 4 mech
230 231 248 247
218 6 4 mech
231 232 249 248
219 6 4 mech
232 233 250 249
220 6 4 mech
233 234 251 250
221 6 4 mech
234 235 252 251
222 6 4 mech
235 236 253 252
223 6 4 mech
236 237 254 253
224 6 4 mech
237 238 255 254
225 6 4 mech
239 240 257 256
226 6 4 mech
240 241 258 257
227 6 4 mech
241 242 259 258
228 6 4 mech
242 243 260 259
229 6 4 mech
243 244 261 260
230 6 4 mech
244 245 262 261
231 6 4 mech
245 246 263 262
232 6 4 mech
246 247 264 263
233 6 4 mech
247 248 265 264
234 6 4 mech
248 249 266 265
235 6 4 mech
249 250 267 266
236 6 4 mech
250 251 268 267
237 6 4 mech
251 252 269 268
238 6 4 mech
252 253 270 269
239 6 4 mech
253 254 271 270
240 6 4 mech
254 255 272 271
241 6 4 mech
256 257 274 273
242 6 4 mech
257 258 275 274
243 6 4 mech
258 259 276 275
244 6 4 mech
259 260 277 276
245 6 4 mech
260 261 278 277
246 6 4 mech
261 262 279 278
247 6 4 mech
262 263 280 279
248 6 4 mech
263 264 281 280
249 6 4 mech
264 265 282 281
250 6 4 mech
265 266 283 282
251 6 4 mech
266 267 284 283
252 6 4 mech
267 268 285 284
253 6 4 mech
268 269 286 285
254 6 4 mech
269 270 287 286
255 6 4 mech
270 271 288 287
256 6 4 mech
271 272 289 288

[3D Elements]
#ElemNr  ElemType  NrOfNodes  Level
#Node1 Node2 ... NodeNrOfNodes

[Node BC]
#NodeNr Level
1 left_lower
17 right_lower
273 left_upper
289 right_upper
1 south
2 south
3 south
4 south
5 south
6 south
7 south
8 south
9 south
10 south
11 south
12 south
13 south
14 south
15 south
16 south
17 south
273 north
274 north
275 north
276 north
277 north
278 north
279 north
280 north
281 north
282 north
283 north
284 north
285 north
286 north
287 north
288 north
289 north
1 west
18 west
35 west
52 west
69 west
86 west
103 west
120 west
137 west
154 west
171 west
188 west
205 west
222 west
239 west
256 west
273 west
17 east
34 east
51 east
68 east
85 east
102 east
119 east
136 east
153 east
170 east
187 east
204 east
221 east
238 east
255 east
272 east
289 east
1 left_lower
17 right_lower
273 left_upper
289 right_upper

[Save Nodes]
#NodeNr Level

[Save Elements]
#ElemNr Level


